<?xml version="1.0" standalone="no"?>
<!DOCTYPE svg PUBLIC "-//W3C//DTD SVG 1.1//EN" "http://www.w3.org/Graphics/SVG/1.1/DTD/svg11.dtd">
<svg xmlns="http://www.w3.org/2000/svg">
<metadata>Generated by Fontastic.me</metadata>
<defs>
<font id="untitled-font-1" horiz-adv-x="512">
<font-face font-family="untitled-font-1" units-per-em="512" ascent="480" descent="-32"/>
<missing-glyph horiz-adv-x="512" />

<glyph glyph-name="calendar-check-o" unicode="&#57344;" d="M372 237l-146-147c-2-1-4-2-7-2-2 0-4 1-6 2l-82 83c-2 1-3 4-3 6 0 3 1 5 3 6l13 14c1 1 4 2 6 2 2 0 5-1 7-2l62-63 127 127c2 1 4 2 7 2 2 0 4-1 6-2l13-14c2-1 3-3 3-6 0-2-1-5-3-6z m-335-200l402 0 0 292-402 0z m109 347l0 82c0 3-1 5-2 7-2 2-4 2-7 2l-18 0c-3 0-5 0-7-2-1-2-2-4-2-7l0-82c0-3 1-5 2-7 2-1 4-2 7-2l18 0c3 0 5 1 7 2 1 2 2 4 2 7z m220 0l0 82c0 3-1 5-3 7-2 2-4 2-6 2l-19 0c-2 0-5 0-6-2-2-2-3-4-3-7l0-82c0-3 1-5 3-7 1-1 4-2 6-2l19 0c2 0 4 1 6 2 2 2 3 4 3 7z m109 18l0-365c0-10-3-19-10-26-8-7-16-11-26-11l-402 0c-10 0-19 4-26 11-7 7-11 16-11 26l0 365c0 10 4 19 11 26 7 7 16 11 26 11l36 0 0 27c0 13 5 24 14 33 9 9 19 13 32 13l18 0c13 0 23-4 32-13 9-9 14-20 14-33l0-27 110 0 0 27c0 13 4 24 13 33 9 9 20 13 32 13l19 0c12 0 23-4 32-13 9-9 13-20 13-33l0-27 37 0c10 0 18-4 26-11 7-7 10-16 10-26z"/>
<glyph glyph-name="calendar-o" unicode="&#57345;" d="M55 37l402 0 0 292-402 0z m110 347l0 82c0 3-1 5-3 7-2 2-4 2-7 2l-18 0c-3 0-5 0-6-2-2-2-3-4-3-7l0-82c0-3 1-5 3-7 1-1 3-2 6-2l18 0c3 0 5 1 7 2 2 2 3 4 3 7z m219 0l0 82c0 3-1 5-3 7-1 2-3 2-6 2l-18 0c-3 0-5 0-7-2-2-2-3-4-3-7l0-82c0-3 1-5 3-7 2-1 4-2 7-2l18 0c3 0 5 1 6 2 2 2 3 4 3 7z m110 18l0-365c0-10-4-19-11-26-7-7-16-11-26-11l-402 0c-10 0-19 4-26 11-7 7-11 16-11 26l0 365c0 10 4 19 11 26 7 7 16 11 26 11l36 0 0 27c0 13 5 24 14 33 9 9 20 13 32 13l18 0c13 0 24-4 33-13 9-9 13-20 13-33l0-27 110 0 0 27c0 13 4 24 13 33 9 9 20 13 33 13l18 0c12 0 23-4 32-13 9-9 14-20 14-33l0-27 36 0c10 0 19-4 26-11 7-7 11-16 11-26z"/>
<glyph glyph-name="briefcase" unicode="&#57346;" d="M183 439l146 0 0 36-146 0z m329-183l0-137c0-13-4-23-13-32-9-9-20-14-33-14l-420 0c-13 0-24 5-33 14-9 9-13 19-13 32l0 137 192 0 0-46c0-5 2-9 5-13 4-3 8-5 13-5l92 0c5 0 9 2 13 5 3 4 5 8 5 13l0 46z m-219 0l0-37-74 0 0 37z m219 137l0-110-512 0 0 110c0 13 4 23 13 32 9 9 20 14 33 14l100 0 0 46c0 7 3 14 8 19 6 5 12 8 20 8l164 0c8 0 14-3 20-8 5-5 8-12 8-19l0-46 100 0c13 0 24-5 33-14 9-9 13-19 13-32z"/>
<glyph glyph-name="cc-visa" unicode="&#57347;" d="M491 229l-39 0c2 7 9 24 19 51l0 3c1 2 2 4 3 7 1 3 2 6 3 8l3-16z m-412 19l-17 84c-2 10-9 15-21 15l-77 0-1-3c60-15 98-47 116-96z m51 99l-47-125-4 26c-5 13-13 25-25 37-11 11-23 19-37 25l38-146 50 0 75 183z m39-183l48 0 30 183-48 0z m220 179c-13 5-27 8-43 8-23 0-42-6-57-17-15-12-23-26-23-44 0-19 14-36 42-50 9-4 15-8 19-11 3-4 5-8 5-12 0-5-3-10-8-13-6-3-13-4-20-4-16 0-31 3-45 9l-6 3-6-41c14-6 31-10 52-10 25 0 45 6 60 17 15 12 23 27 23 46 0 20-13 37-40 50-9 4-16 8-20 12-4 3-7 7-7 11 0 4 3 7 7 11 5 3 12 4 21 4 13 0 25-2 35-7l4-2z m121 4l-36 0c-13 0-21-5-25-15l-70-168 49 0 10 27 61 0c1-4 3-13 6-27l44 0z m75 92l0-366c0-10-3-18-11-26-7-7-16-10-25-10l-586 0c-9 0-18 3-25 10-8 8-11 16-11 26l0 366c0 10 3 18 11 26 7 7 16 10 25 10l586 0c9 0 18-3 25-10 8-8 11-16 11-26z"/>
<glyph glyph-name="cc-paypal" unicode="&#57348;" d="M140 253c0-7-3-13-8-17-4-5-10-7-17-7-6 0-10 1-14 4-3 3-5 7-5 13 0 7 3 13 7 18 5 4 11 7 18 7 5 0 10-2 13-5 4-3 6-7 6-13z m224 43c0-8-2-14-6-17-4-2-11-4-19-4l-9 0 5 30c0 3 1 4 3 4l5 0c5 0 8-1 10-1 3 0 5-2 8-4 2-2 3-4 3-8z m100-43c0-7-2-13-7-17-5-5-11-7-18-7-5 0-10 1-13 4-3 3-5 7-5 13 0 7 2 13 7 18 5 4 11 7 18 7 5 0 9-2 13-5 4-3 5-7 5-13z m-391 49c0 11-3 19-11 24-7 5-16 8-28 8l-46 0c-4 0-6-2-6-5l-19-117c0-1 1-2 1-3 1-1 2-2 3-2l22 0c4 0 6 2 6 6l5 31c0 2 1 3 2 4 1 1 3 2 5 2 1 0 3 0 4 0 2 0 4 0 6 0 2 0 3 0 4 0 16 0 29 4 38 14 10 9 14 22 14 38z m89-89l11 74c1 2 0 3 0 4-1 1-2 1-3 1l-22 0c-3 0-4-3-5-9-5 7-14 11-27 11-14 0-25-5-35-15-10-11-14-23-14-37 0-11 3-20 9-27 7-6 16-10 27-10 5 0 11 2 16 4 6 2 11 5 14 9-1-2-1-4-1-6 0-3 1-5 4-5l19 0c4 0 6 2 7 6z m127 75c0 1 0 2-1 3 0 1-1 1-2 1l-22 0c-2 0-4-1-5-3l-31-44-12 42c-1 3-3 5-7 5l-21 0c-1 0-2 0-3-1 0-1-1-2-1-3 0 0 2-6 6-17 4-11 8-22 12-35 4-13 6-19 7-20-16-21-24-33-24-34 0-3 1-4 4-4l22 0c2 0 4 1 5 3l73 105c0 0 0 1 0 2z m109 14c0 11-4 19-11 24-7 5-17 8-29 8l-45 0c-4 0-6-2-6-5l-19-117c0-1 0-2 1-3 1-1 2-2 3-2l23 0c2 0 4 2 5 4l5 33c0 2 1 3 2 4 1 1 2 2 4 2 2 0 3 0 5 0 2 0 3 0 5 0 3 0 4 0 4 0 17 0 30 4 39 14 9 9 14 22 14 38z m88-89l12 74c0 2 0 3-1 4-1 1-2 1-3 1l-21 0c-3 0-5-3-5-9-5 7-14 11-27 11-14 0-26-5-35-15-10-11-15-23-15-37 0-11 3-20 10-27 7-6 15-10 26-10 6 0 12 2 17 4 6 2 10 5 14 9 0 0 0-1-1-3 0-1 0-2 0-3 0-3 1-5 3-5l20 0c4 0 6 2 6 6z m63 117l0 0c0 3-2 4-4 4l-21 0c-2 0-4-1-4-3l-19-119 0-1c0-1 1-1 1-2 1-1 2-2 3-2l19 0c4 0 6 2 6 6z m-510-39c-1-6-4-11-8-13-4-2-9-3-17-3l-9 0 5 30c0 3 1 4 3 4l6 0c7 0 13-2 16-4 4-2 5-7 4-14z m546 148l0-366c0-10-3-18-11-26-7-7-16-10-25-10l-586 0c-9 0-18 3-25 10-8 8-11 16-11 26l0 366c0 10 3 18 11 26 7 7 16 10 25 10l586 0c9 0 18-3 25-10 8-8 11-16 11-26z"/>
<glyph glyph-name="cc-mastercard" unicode="&#57349;" d="M119 245l-4 0c-9 0-14-3-14-9 0-4 2-6 6-6 3 0 6 1 8 4 2 3 3 7 4 11z m112 11l18 0 0 1c0 0 0 1 0 1 0 1 0 2 0 2 0 1 0 2-1 3 0 0-1 1-1 2-1 0-1 1-2 1-1 0-2 1-4 1-5 0-8-4-10-11z m155-11l-4 0c-9 0-13-3-13-9 0-4 1-6 5-6 4 0 6 1 8 4 2 3 4 7 4 11z m91 8c0 8-3 12-9 12-3 0-6-2-9-6-2-4-3-9-3-15 0-8 3-12 8-12 4 0 7 2 9 6 3 4 4 9 4 15z m-413 40l25 0-13-75-16 0 9 58-20-58-11 0-1 57-10-57-15 0 13 75 23 0 0-46z m72-30c0-2 0-6-1-12-3-20-5-30-5-33l-13 0 0 7c-4-5-9-8-16-8-5 0-8 2-11 5-3 3-4 7-4 12 0 7 2 13 7 17 5 4 12 6 21 6 3 0 5 0 7 0 0 0 0 1-1 1 0 1 0 1 1 2 0 0 0 0 1 1 0 3-3 5-10 5-6 0-11-1-17-3 0 1 1 6 2 14 7 2 14 3 19 3 14 0 21-6 21-17z m45 16l-2-14c-5 1-9 1-12 1-5 0-8-2-8-5 0-1 1-3 1-3 1-1 3-2 7-3 7-4 11-10 11-18 0-13-8-20-25-20-6 0-12 1-16 2 0 0 0 5 2 14 5-2 10-2 14-2 6 0 9 1 9 5 0 1 0 2-1 3-1 1-3 2-6 4-8 4-12 9-12 17 0 13 8 20 24 20 5 0 10 0 14-1z m25 0l8 0-2-15-8 0c-1-3-1-7-2-11-1-5-2-8-2-11-1-3-1-5-1-5 0-3 2-5 6-5 1 0 3 0 4 1l-2-14c-4-1-8-2-12-2-8 0-12 5-12 14 0 2 0 7 2 16 0 3 3 17 7 41l16 0z m58-21c0-4-1-9-2-15l-32 0c0-4 1-7 3-9 3-2 6-3 11-3 6 0 11 1 17 4l-3-16c-6-1-11-2-16-2-18 0-27 9-27 27 0 11 2 19 7 26 6 7 12 10 20 10 7 0 12-2 16-6 4-4 6-9 6-16z m40 21c-3-4-5-10-7-17-4 0-7-2-8-7-2-5-5-17-8-37l-16 0 1 4c4 25 7 44 9 57l14 0-1-9c3 4 5 7 8 8 2 2 4 2 8 1z m53 12l-2-16c-6 3-11 4-15 4-6 0-10-3-14-8-4-5-6-12-6-20 0-6 1-10 4-14 2-3 6-4 11-4 4 0 8 1 14 3l-3-17c-6-1-10-2-15-2-8 0-15 3-20 9-5 6-8 14-8 23 0 14 4 25 11 33 6 9 15 13 26 13 5 0 10-1 17-4z m46-28c0-4 0-8-1-12-2-15-4-26-5-33l-13 0 1 7c-4-5-10-8-17-8-5 0-8 2-11 5-3 3-4 7-4 12 0 7 3 13 7 17 5 4 12 6 21 6 3 0 5 0 7 0 0 1 0 2 0 4 0 3-3 5-10 5-6 0-11-1-17-3 0 1 1 6 2 14 8 2 14 3 20 3 13 0 20-6 20-17z m41 16c-3-4-5-10-6-17-5 0-8-2-9-7-2-5-4-17-8-37l-16 0 1 4c4 20 7 39 9 57l14 0c0-2 0-5-1-9 3 4 6 7 8 8 2 2 5 2 8 1z m40 14l16 0-12-75-15 0 0 6c-4-5-9-7-14-7-6 0-11 2-15 7-3 5-5 11-5 18 0 10 3 19 8 27 5 7 11 11 18 11 6 0 11-3 16-9z m32-37c0 28-7 54-21 78-14 24-33 43-57 57-23 13-50 20-78 20-34 0-65-10-93-31 24-22 40-49 48-81l-14 0c-8 28-23 53-45 72-22-19-37-44-45-72l-14 0c8 32 24 59 48 81-28 21-59 31-93 31-28 0-55-7-78-20-24-14-43-33-57-57-14-24-21-50-21-78 0-28 7-54 21-78 14-24 33-43 57-57 23-13 50-20 78-20 34 0 65 10 93 31-22 21-38 46-47 75l15 0c8-26 23-48 43-66 20 18 35 40 43 66l15 0c-9-29-25-54-47-75 28-21 59-31 93-31 28 0 55 7 78 20 24 14 43 33 57 57 14 24 21 50 21 78z m69 183l0-366c0-10-3-18-11-26-7-7-16-10-25-10l-586 0c-9 0-18 3-25 10-8 8-11 16-11 26l0 366c0 10 3 18 11 26 7 7 16 10 25 10l586 0c9 0 18-3 25-10 8-8 11-16 11-26z"/>
<glyph glyph-name="cc-diners-club" unicode="&#57350;" d="M172 157l0 198c-20-7-37-20-49-38-13-18-19-38-19-61 0-22 6-42 19-60 12-18 29-31 49-39z m144 99c0 23-6 43-19 61-12 18-29 31-49 38l0-198c20 8 37 21 49 39 13 18 19 38 19 60z m61 0c0-30-7-58-22-84-15-25-35-46-61-61-26-15-54-22-84-22-23 0-44 4-65 13-21 9-38 21-53 36-15 15-27 33-36 53-9 21-13 43-13 65 0 31 7 59 22 84 15 26 35 46 61 61 26 15 54 23 84 23 30 0 58-8 84-23 26-15 46-35 61-61 15-25 22-53 22-84z m110-2c0 27-5 52-16 75-11 23-25 43-42 59-18 16-38 28-61 37-23 9-47 14-72 14l-86 0c-34 0-65-8-93-23-28-16-50-38-67-66-17-28-25-60-25-96 0-32 8-63 25-90 17-28 39-50 67-67 29-16 60-24 93-24l86 0c24 0 48 5 72 15 23 9 43 22 61 38 17 16 31 36 42 58 11 22 16 46 16 70z m98 185l0-366c0-10-3-18-11-26-7-7-16-10-25-10l-586 0c-9 0-18 3-25 10-8 8-11 16-11 26l0 366c0 10 3 18 11 26 7 7 16 10 25 10l586 0c9 0 18-3 25-10 8-8 11-16 11-26z"/>
<glyph glyph-name="cc-amex" unicode="&#57351;" d="M-39 317l25 0-13 31z m177-150l21 22-20 23-46 0 0-14 40 0 0-16-40 0 0-15z m45 22l29-31 0 62z m83 14c0 6-4 9-12 9l-24 0 0-20 24 0c8 0 12 4 12 11z m82 1c0 5-4 8-12 8l-23 0 0-17 23 0c8 0 12 3 12 9z m-79 133c0 5-4 8-12 8l-24 0 0-17 24 0c8 0 12 3 12 9z m131-20l25 0-12 31z m-273 44l0-77-19 0 0 61-27-61-16 0-27 61 0-61-38 0-7 17-39 0-7-17-20 0 33 77 28 0 31-73 0 73 30 0 25-52 22 52z m158-158c0-4 0-8-1-10-1-3-3-6-4-8-2-1-4-3-7-4-2-2-5-2-7-3-2-1-5-1-9-1-4-1-7-1-9-1-2 0-5 0-9 0-4 1-7 1-9 1l0-26-36 0-23 25-23-25-73 0 0 77 74 0 23-25 23 25 59 0c21 0 31-8 31-25z m-83 97l0-16-62 0 0 77 62 0 0-16-43 0 0-14 42 0 0-16-42 0 0-15z m383-160l0-65c0-11-4-20-11-27-7-8-16-11-27-11l-582 0c-11 0-20 3-27 11-7 7-11 16-11 27l0 194 32 0 7 17 15 0 8-17 62 0 0 13 5-13 33 0 5 13 0-13 155 0 0 28 3 0c2 0 3-1 3-4l0-24 79 0 0 6c5-2 10-4 16-5 6-1 11-2 15-2 4 0 10 0 18 0 8 0 13 1 15 1l7 17 16 0 7-17 65 0 0 16 10-16 52 0 0 108-52 0 0-13-7 13-53 0 0-13-6 13-72 0c-13 0-23-3-31-7l0 7-49 0 0-7c-4 4-11 7-21 7l-179 0-12-28-13 28-56 0 0-13-7 13-48 0-22-52 0 112c0 11 4 20 11 27 7 8 16 11 27 11l582 0c11 0 20-3 27-11 7-7 11-16 11-27l0-194-34 0c-10 0-18-2-23-6l0 6-51 0c-10 0-18-2-22-6l0 6-90 0 0-6c-6 4-15 6-25 6l-60 0 0-6c-4 4-13 6-26 6l-67 0-15-16-15 16-99 0 0-108 98 0 15 17 15-17 61 0 0 26 6 0c11 0 19 1 25 4l0-30 50 0 0 29 2 0c2 0 3 0 3-1 1 0 1-1 1-3l0-25 151 0c11 0 19 3 25 7l0-7 48 0c11 0 20 2 27 5z m-216 67c0-4-2-8-4-12-2-4-5-7-10-8 5-2 8-5 10-8 2-3 3-7 3-13l0-15-19 0 0 12c0 7-1 11-3 13-3 2-7 3-13 3l-20 0 0-28-19 0 0 77 44 0c9 0 17-1 22-4 6-3 9-9 9-17z m-80 134c0-5-1-9-3-13-3-4-6-7-10-8 5-2 9-4 10-8 2-3 3-7 3-13l0-15-19 0c0 2 0 4 0 8 0 3 0 5 0 7 0 1 0 3-1 5-1 2-1 4-2 5-1 1-3 1-5 2-3 1-6 1-9 1l-20 0 0-28-18 0 0 77 44 0c9 0 16-1 22-4 5-3 8-8 8-16z m152-174l0-16-62 0 0 77 62 0 0-16-44 0 0-14 43 0 0-16-43 0 0-15z m-122 194l0-77-19 0 0 77z m198-186c0-16-10-24-29-24l-36 0 0 16 36 0c6 0 9 3 9 7 0 3-1 5-4 6-4 1-8 2-12 2-5 0-10 0-14 1-5 0-9 3-12 6-4 4-5 9-5 16 0 7 2 13 7 17 5 4 11 6 19 6l37 0 0-16-34 0c-7 0-10-3-10-7 0-3 2-5 5-6 3-1 7-2 12-1 5 0 9-1 14-1 5-1 9-3 12-6 3-4 5-9 5-16z m68 14l0-28c-4-7-13-10-25-10l-36 0 0 16 36 0c6 0 9 3 9 7 0 3-1 5-3 6-3 1-5 1-9 1-4 0-7 0-11 1-5 0-8 1-12 2-3 1-6 3-9 7-2 4-3 8-3 14 0 7 2 13 7 17 5 4 12 6 19 6l37 0 0-16-34 0c-6 0-10-3-10-7 0-4 3-6 8-7 6 0 12-1 20-1 8-1 13-3 16-8z m-47 172l0-77-26 0-35 58 0-58-38 0-7 17-39 0-7-17-21 0c-25 0-37 13-37 38 0 26 13 39 38 39l18 0 0-16c-1 0-4 0-8 0-4 0-7 0-8 0-2 0-4 0-7-1-3 0-5 0-6-1-1-1-2-3-4-4-2-2-3-4-3-7-1-3-1-6-1-9 0-8 1-13 4-17 2-4 7-6 14-6l8 0 26 61 28 0 31-73 0 73 29 0 32-54 0 54z"/>
<glyph glyph-name="certificate" unicode="&#57352;" d="M430 256l39-39c6-5 8-12 6-20-2-7-7-12-15-14l-54-14 15-53c3-8 1-14-5-20-6-6-12-8-20-5l-53 15-14-54c-2-8-7-13-14-15-3 0-5 0-6 0-6 0-11 2-14 6l-39 39-39-39c-5-6-12-8-20-6-7 2-12 7-14 15l-14 54-53-15c-8-3-14-1-20 5-6 6-8 12-5 20l15 53-54 14c-8 2-13 7-15 14-2 8 0 15 6 20l39 39-39 39c-6 5-8 12-6 20 2 7 7 12 15 14l54 14-15 53c-3 8-1 14 5 20 6 6 12 8 20 5l53-15 14 54c2 8 7 13 14 15 8 2 15 0 20-6l39-40 39 40c5 6 12 8 20 6 7-2 12-7 14-15l14-54 53 15c8 3 14 1 20-5 6-6 8-12 5-20l-15-53 54-14c8-2 13-7 15-14 2-8 0-15-6-20z"/>
<glyph glyph-name="check-circle" unicode="&#57353;" d="M403 302c0 6-1 10-5 13l-26 26c-3 4-8 6-13 6-5 0-9-2-12-6l-117-116-65 64c-3 4-7 6-12 6-5 0-10-2-13-6l-26-25c-4-4-5-8-5-13 0-6 1-10 5-13l103-104c4-3 8-5 13-5 5 0 10 2 13 5l155 155c4 4 5 8 5 13z m72-46c0-40-9-77-29-110-20-34-46-60-80-80-33-20-70-29-110-29-40 0-77 9-110 29-34 20-60 46-80 80-20 33-29 70-29 110 0 40 9 77 29 110 20 34 46 60 80 80 33 20 70 29 110 29 40 0 77-9 110-29 34-20 60-46 80-80 20-33 29-70 29-110z"/>
<glyph glyph-name="check-circle-o" unicode="&#57354;" d="M371 280l-120-121c-4-3-8-5-13-5-5 0-10 2-13 5l-84 84c-4 4-6 8-6 13 0 5 2 9 6 13l29 29c4 4 8 5 13 5 5 0 9-1 13-5l42-42 78 79c4 3 8 5 13 5 5 0 9-2 13-5l29-30c4-3 6-7 6-12 0-5-2-10-6-13z m40-24c0 28-7 54-20 78-14 24-33 43-57 57-24 13-50 20-78 20-28 0-54-7-78-20-24-14-43-33-57-57-13-24-20-50-20-78 0-28 7-54 20-78 14-24 33-43 57-57 24-13 50-20 78-20 28 0 54 7 78 20 24 14 43 33 57 57 13 24 20 50 20 78z m64 0c0-40-9-77-29-110-20-34-46-60-80-80-33-20-70-29-110-29-40 0-77 9-110 29-34 20-60 46-80 80-20 33-29 70-29 110 0 40 9 77 29 110 20 34 46 60 80 80 33 20 70 29 110 29 40 0 77-9 110-29 34-20 60-46 80-80 20-33 29-70 29-110z"/>
<glyph glyph-name="chevron-circle-down" unicode="&#57355;" d="M269 141l130 130c3 3 5 7 5 12 0 5-2 10-5 13l-30 29c-3 4-7 6-12 6-5 0-10-2-13-6l-88-87-88 87c-3 4-8 6-13 6-5 0-9-2-12-6l-30-29c-3-3-5-8-5-13 0-5 2-9 5-12l130-130c4-4 8-6 13-6 5 0 9 2 13 6z m206 115c0-40-9-77-29-110-20-34-46-60-80-80-33-20-70-29-110-29-40 0-77 9-110 29-34 20-60 46-80 80-20 33-29 70-29 110 0 40 9 77 29 110 20 34 46 60 80 80 33 20 70 29 110 29 40 0 77-9 110-29 34-20 60-46 80-80 20-33 29-70 29-110z"/>
<glyph glyph-name="chevron-circle-left" unicode="&#57356;" d="M296 113l29 30c4 3 6 7 6 12 0 5-2 10-6 13l-87 88 87 88c4 3 6 8 6 13 0 5-2 9-6 12l-29 30c-3 3-8 5-13 5-5 0-9-2-12-5l-130-130c-4-4-6-8-6-13 0-5 2-9 6-13l130-130c3-3 7-5 12-5 5 0 10 2 13 5z m179 143c0-40-9-77-29-110-20-34-46-60-80-80-33-20-70-29-110-29-40 0-77 9-110 29-34 20-60 46-80 80-20 33-29 70-29 110 0 40 9 77 29 110 20 34 46 60 80 80 33 20 70 29 110 29 40 0 77-9 110-29 34-20 60-46 80-80 20-33 29-70 29-110z"/>
<glyph glyph-name="chevron-circle-right" unicode="&#57357;" d="M241 113l130 130c4 4 6 8 6 13 0 5-2 9-6 13l-130 130c-3 3-7 5-12 5-5 0-10-2-13-5l-29-30c-4-3-6-7-6-12 0-5 2-10 6-13l87-88-87-88c-4-3-6-8-6-13 0-5 2-9 6-12l29-30c3-3 8-5 13-5 5 0 9 2 12 5z m234 143c0-40-9-77-29-110-20-34-46-60-80-80-33-20-70-29-110-29-40 0-77 9-110 29-34 20-60 46-80 80-20 33-29 70-29 110 0 40 9 77 29 110 20 34 46 60 80 80 33 20 70 29 110 29 40 0 77-9 110-29 34-20 60-46 80-80 20-33 29-70 29-110z"/>
<glyph glyph-name="chevron-circle-up" unicode="&#57358;" d="M369 187l30 29c3 3 5 8 5 13 0 5-2 9-5 12l-130 130c-4 4-8 6-13 6-5 0-9-2-13-6l-130-130c-3-3-5-7-5-12 0-5 2-10 5-13l30-29c3-4 7-6 12-6 5 0 10 2 13 6l88 87 88-87c3-4 8-6 13-6 5 0 9 2 12 6z m106 69c0-40-9-77-29-110-20-34-46-60-80-80-33-20-70-29-110-29-40 0-77 9-110 29-34 20-60 46-80 80-20 33-29 70-29 110 0 40 9 77 29 110 20 34 46 60 80 80 33 20 70 29 110 29 40 0 77-9 110-29 34-20 60-46 80-80 20-33 29-70 29-110z"/>
<glyph glyph-name="chevron-down" unicode="&#57359;" d="M481 281l-212-212c-4-3-8-5-13-5-5 0-9 2-13 5l-212 212c-3 4-5 8-5 13 0 5 2 10 5 13l48 47c3 4 7 6 12 6 5 0 10-2 13-6l152-151 152 151c3 4 8 6 13 6 5 0 9-2 12-6l48-47c3-3 5-8 5-13 0-5-2-9-5-13z"/>
<glyph glyph-name="chevron-left" unicode="&#57360;" d="M408 426l-152-152 152-151c3-4 5-8 5-13 0-5-2-10-5-13l-48-48c-3-3-8-5-13-5-5 0-9 2-12 5l-212 212c-4 4-6 8-6 13 0 5 2 10 6 13l212 212c3 4 7 6 12 6 5 0 10-2 13-6l48-47c3-4 5-8 5-13 0-5-2-9-5-13z"/>
<glyph glyph-name="chevron-right" unicode="&#57361;" d="M389 261l-212-212c-3-3-7-5-12-5-5 0-10 2-13 5l-48 48c-3 3-5 8-5 13 0 5 2 9 5 13l152 151-152 152c-3 4-5 8-5 13 0 5 2 9 5 13l48 47c3 4 8 6 13 6 5 0 9-2 12-6l212-212c4-3 6-8 6-13 0-5-2-9-6-13z"/>
<glyph glyph-name="chevron-up" unicode="&#57362;" d="M481 132l-48-47c-3-4-7-6-12-6-5 0-10 2-13 6l-152 151-152-151c-3-4-8-6-13-6-5 0-9 2-12 6l-48 47c-3 3-5 8-5 13 0 5 2 9 5 13l212 211c4 4 8 6 13 6 5 0 9-2 13-6l212-211c3-4 5-8 5-13 0-5-2-10-5-13z"/>
<glyph glyph-name="clone" unicode="&#57363;" d="M475 46l0 311c0 2 0 4-2 6-2 2-4 3-7 3l-311 0c-2 0-4-1-6-3-2-2-3-4-3-6l0-311c0-3 1-5 3-7 2-2 4-2 6-2l311 0c3 0 5 0 7 2 2 2 2 4 2 7z m37 311l0-311c0-13-4-24-13-33-9-9-20-13-33-13l-311 0c-12 0-23 4-32 13-9 9-13 20-13 33l0 311c0 12 4 23 13 32 9 9 20 13 32 13l311 0c13 0 24-4 33-13 9-9 13-20 13-32z m-110 109l0-45-36 0 0 45c0 3-1 5-3 7-2 2-4 2-6 2l-311 0c-3 0-5 0-7-2-2-2-2-4-2-7l0-311c0-2 0-4 2-6 2-2 4-3 7-3l45 0 0-36-45 0c-13 0-24 4-33 13-9 9-13 20-13 32l0 311c0 13 4 24 13 33 9 9 20 13 33 13l311 0c12 0 23-4 32-13 9-9 13-20 13-33z"/>
<glyph glyph-name="clipboard" unicode="&#57364;" d="M219 37l256 0 0 182-118 0c-8 0-15 3-20 8-5 6-8 12-8 20l0 119-110 0z m74 411l0 18c0 3-1 5-3 7-2 2-4 2-7 2l-201 0c-2 0-4 0-6-2-2-2-3-4-3-7l0-18c0-2 1-5 3-6 2-2 4-3 6-3l201 0c3 0 5 1 7 3 2 1 3 4 3 6z m73-192l85 0-85 85z m146-37l0-192c0-7-3-14-8-19-5-5-12-8-19-8l-275 0c-7 0-14 3-19 8-5 5-8 12-8 19l0 46-156 0c-7 0-14 3-19 8-5 5-8 12-8 20l0 384c0 7 3 14 8 19 5 5 12 8 19 8l311 0c8 0 14-3 20-8 5-5 8-12 8-19l0-94c4-3 7-5 10-8l117-117c5-5 9-12 13-21 4-10 6-18 6-26z"/>
<glyph glyph-name="clock-o" unicode="&#57365;" d="M293 357l0-128c0-3-1-5-3-7-2-2-4-3-7-3l-91 0c-3 0-5 1-7 3-1 2-2 4-2 7l0 18c0 3 1 5 2 6 2 2 4 3 7 3l64 0 0 101c0 2 1 4 3 6 1 2 3 3 6 3l18 0c3 0 5-1 7-3 2-2 3-4 3-6z m118-101c0 28-7 54-20 78-14 24-33 43-57 57-24 13-50 20-78 20-28 0-54-7-78-20-24-14-43-33-57-57-13-24-20-50-20-78 0-28 7-54 20-78 14-24 33-43 57-57 24-13 50-20 78-20 28 0 54 7 78 20 24 14 43 33 57 57 13 24 20 50 20 78z m64 0c0-40-9-77-29-110-20-34-46-60-80-80-33-20-70-29-110-29-40 0-77 9-110 29-34 20-60 46-80 80-20 33-29 70-29 110 0 40 9 77 29 110 20 34 46 60 80 80 33 20 70 29 110 29 40 0 77-9 110-29 34-20 60-46 80-80 20-33 29-70 29-110z"/>
<glyph glyph-name="coffee" unicode="&#57366;" d="M457 329c0 15-5 28-16 39-11 11-23 16-39 16l-18 0 0-110 18 0c16 0 28 6 39 16 11 11 16 24 16 39z m-475-219l512 0c0-20-7-38-22-52-14-14-31-21-51-21l-366 0c-20 0-38 7-52 21-14 14-21 32-21 52z m530 219c0-30-11-56-32-77-22-22-47-33-78-33l-18 0 0-9c0-17-6-32-19-45-12-12-27-19-45-19l-201 0c-18 0-33 7-45 19-13 13-19 28-19 45l0 211c0 5 2 9 5 12 4 4 8 6 13 6l329 0c31 0 56-11 78-32 21-22 32-48 32-78z"/>
<glyph glyph-name="eye" unicode="&#57367;" d="M475 238c-29 45-65 78-108 101 11-20 17-42 17-65 0-35-13-65-38-90-25-25-55-38-90-38-35 0-65 13-90 38-25 25-38 55-38 90 0 23 6 45 17 65-43-23-79-56-108-101 25-39 57-70 95-94 38-23 79-34 124-34 45 0 86 11 124 34 38 24 70 55 95 94z m-205 109c0 4-2 7-4 10-3 3-6 4-10 4-24 0-44-8-61-25-17-17-26-38-26-62 0-4 1-7 4-9 3-3 6-4 10-4 4 0 7 1 10 4 2 2 4 5 4 9 0 17 5 31 17 42 12 12 26 18 42 18 4 0 7 1 10 4 2 2 4 6 4 9z m242-109c0-7-2-13-6-20-26-44-62-79-107-105-45-27-93-40-143-40-50 0-98 13-143 40-45 26-81 61-107 105-4 7-6 13-6 20 0 6 2 13 6 19 26 44 62 79 107 106 45 26 93 39 143 39 50 0 98-13 143-39 45-27 81-62 107-106 4-6 6-13 6-19z"/>
<glyph glyph-name="eye-slash" unicode="&#57368;" d="M159 131l22 40c-17 12-30 27-39 45-9 19-14 38-14 58 0 23 6 45 17 65-43-23-79-56-108-101 31-49 72-85 122-107z m111 216c0 4-2 7-4 10-3 3-6 4-10 4-24 0-44-8-61-25-17-17-26-38-26-62 0-4 1-7 4-9 3-3 6-4 10-4 4 0 7 1 10 4 2 2 4 5 4 9 0 17 5 31 17 42 12 12 26 18 42 18 4 0 7 1 10 4 2 2 4 6 4 9z m103 55c0-1 0-2 0-3-20-35-50-89-90-161-40-72-70-126-90-162l-14-26c-2-3-5-4-8-4-2 0-15 6-38 20-3 2-5 4-5 8 0 2 4 10 13 25-28 12-53 28-76 49-23 21-43 44-59 70-4 6-6 12-6 20 0 7 2 14 6 19 29 45 65 81 108 106 44 26 91 39 142 39 17 0 34-1 51-5l16 28c2 3 4 5 8 5 1 0 3-1 5-2 2-1 5-3 9-4 3-2 6-4 9-6 3-1 6-3 9-5 3-2 5-3 6-3 3-2 4-5 4-8z m11-128c0-26-8-50-23-72-15-22-35-38-59-47l80 143c1-8 2-16 2-24z m128-36c0-7-2-14-6-20-7-12-18-26-31-41-28-33-62-59-99-77-38-18-78-27-120-27l21 38c41 3 78 16 112 39 35 23 63 52 86 88-21 34-48 62-80 84l18 32c18-12 35-27 52-44 17-17 30-34 41-53 4-6 6-13 6-19z"/>
<glyph glyph-name="file-excel-o" unicode="&#57369;" d="M456 403c5-5 10-12 14-21 4-9 5-18 5-25l0-330c0-7-2-14-8-19-5-5-11-8-19-8l-384 0c-8 0-14 3-19 8-6 5-8 12-8 19l0 458c0 7 2 14 8 19 5 5 11 8 19 8l256 0c8 0 16-2 25-6 9-4 17-8 22-13z m-127 70l0-107 108 0c-2 5-4 9-7 11l-89 90c-2 2-6 4-12 6z m110-436l0 292-119 0c-8 0-14 3-19 8-6 5-8 12-8 20l0 118-220 0 0-438z m-280 66l0-30 80 0 0 30-21 0 29 46c1 2 2 3 3 5 1 2 2 3 2 4 1 1 1 1 1 1l1 0c0-1 1-2 1-3 1 0 1-1 2-2 0-1 1-1 1-2 1-1 2-2 2-3l31-46-22 0 0-30 83 0 0 30-19 0-55 78 56 81 19 0 0 31-80 0 0-31 21 0-29-45c-1-2-2-3-3-5-1-2-2-3-3-4l0-1-1 0c0 1 0 2-1 3-1 2-3 4-5 7l-30 45 21 0 0 31-82 0 0-31 19 0 54-78-55-81z"/>
<glyph glyph-name="file-image-o" unicode="&#57370;" d="M456 403c5-5 10-12 14-21 4-9 5-18 5-25l0-330c0-7-2-14-8-19-5-5-11-8-19-8l-384 0c-8 0-14 3-19 8-6 5-8 12-8 19l0 458c0 7 2 14 8 19 5 5 11 8 19 8l256 0c8 0 16-2 25-6 9-4 17-8 22-13z m-127 70l0-107 108 0c-2 5-4 9-7 11l-89 90c-2 2-6 4-12 6z m110-436l0 292-119 0c-8 0-14 3-19 8-6 5-8 12-8 20l0 118-220 0 0-438z m-37 128l0-92-292 0 0 55 55 55 36-37 110 110z m-237 54c-16 0-29 6-39 16-11 11-16 24-16 39 0 16 5 28 16 39 10 11 23 16 39 16 15 0 28-5 38-16 11-11 16-23 16-39 0-15-5-28-16-39-10-10-23-16-38-16z"/>
<glyph glyph-name="file-o" unicode="&#57371;" d="M456 403c5-5 10-12 14-21 4-9 5-18 5-25l0-330c0-7-2-14-8-19-5-5-11-8-19-8l-384 0c-8 0-14 3-19 8-6 5-8 12-8 19l0 458c0 7 2 14 8 19 5 5 11 8 19 8l256 0c8 0 16-2 25-6 9-4 17-8 22-13z m-127 70l0-107 108 0c-2 5-4 9-7 11l-89 90c-2 2-6 4-12 6z m110-436l0 292-119 0c-8 0-14 3-19 8-6 5-8 12-8 20l0 118-220 0 0-438z"/>
<glyph glyph-name="file-text" unicode="&#57372;" d="M456 376c3-3 5-6 8-10l-135 0 0 135c4-3 8-6 10-8z m-136-47l155 0 0-302c0-7-2-14-8-19-5-5-11-8-19-8l-384 0c-8 0-14 3-19 8-6 5-8 12-8 19l0 458c0 7 2 14 8 19 5 5 11 8 19 8l229 0 0-155c0-8 2-15 8-20 5-5 11-8 19-8z m46-210l0 18c0 3-1 5-3 7-2 1-4 2-6 2l-202 0c-2 0-4-1-6-2-2-2-3-4-3-7l0-18c0-3 1-5 3-7 2-1 4-2 6-2l202 0c2 0 4 1 6 2 2 2 3 4 3 7z m0 73l0 18c0 3-1 5-3 7-2 2-4 2-6 2l-202 0c-2 0-4 0-6-2-2-2-3-4-3-7l0-18c0-3 1-5 3-7 2-1 4-2 6-2l202 0c2 0 4 1 6 2 2 2 3 4 3 7z m0 73l0 18c0 3-1 5-3 7-2 2-4 3-6 3l-202 0c-2 0-4-1-6-3-2-2-3-4-3-7l0-18c0-3 1-5 3-6 2-2 4-3 6-3l202 0c2 0 4 1 6 3 2 1 3 3 3 6z"/>
<glyph glyph-name="file-text-o" unicode="&#57373;" d="M456 403c5-5 10-12 14-21 4-9 5-18 5-25l0-330c0-7-2-14-8-19-5-5-11-8-19-8l-384 0c-8 0-14 3-19 8-6 5-8 12-8 19l0 458c0 7 2 14 8 19 5 5 11 8 19 8l256 0c8 0 16-2 25-6 9-4 17-8 22-13z m-127 70l0-107 108 0c-2 5-4 9-7 11l-89 90c-2 2-6 4-12 6z m110-436l0 292-119 0c-8 0-14 3-19 8-6 5-8 12-8 20l0 118-220 0 0-438z m-293 246c0 3 1 5 3 7 2 2 4 3 6 3l202 0c2 0 4-1 6-3 2-2 3-4 3-7l0-18c0-3-1-5-3-6-2-2-4-3-6-3l-202 0c-2 0-4 1-6 3-2 1-3 3-3 6z m211-64c2 0 4 0 6-2 2-2 3-4 3-7l0-18c0-3-1-5-3-7-2-1-4-2-6-2l-202 0c-2 0-4 1-6 2-2 2-3 4-3 7l0 18c0 3 1 5 3 7 2 2 4 2 6 2z m0-73c2 0 4-1 6-2 2-2 3-4 3-7l0-18c0-3-1-5-3-7-2-1-4-2-6-2l-202 0c-2 0-4 1-6 2-2 2-3 4-3 7l0 18c0 3 1 5 3 7 2 1 4 2 6 2z"/>
<glyph glyph-name="filter" unicode="&#57374;" d="M456 428c3-8 2-15-4-20l-141-141 0-212c0-8-4-14-11-17-3-1-5-1-7-1-6 0-10 1-13 5l-73 73c-4 4-6 8-6 13l0 139-141 141c-6 5-7 12-4 20 4 7 9 11 17 11l366 0c8 0 13-4 17-11z"/>
<glyph glyph-name="font" unicode="&#57375;" d="M225 352l-48-128c6 0 19 0 39-1 20 0 35 0 46 0 3 0 9 0 16 0-17 48-34 91-53 129z m-207-315l1 22c4 1 10 3 16 4 6 1 12 2 16 3 5 1 9 2 14 4 5 2 9 4 13 8 4 4 7 9 9 15l68 176 80 206 36 0c2-2 3-4 3-6l59-137c6-15 16-39 30-73 14-34 25-61 33-79 3-6 8-20 16-41 8-21 15-37 21-48 4-9 7-14 10-16 3-3 12-6 25-9 13-3 21-5 24-6 1-7 2-12 2-16 0-1 0-2 0-4-1-1-1-3-1-3-12 0-30 0-54 2-24 1-42 2-54 2-15 0-35-1-62-2-26-1-43-2-51-2 0 8 1 15 1 22l38 8c0 0 1 0 3 1 3 0 4 1 5 1 1 0 2 0 4 1 2 1 3 1 4 2 1 1 2 1 3 2 2 1 3 2 3 3 0 2 1 3 1 4 0 3-3 13-9 28-6 15-13 32-21 51-8 18-12 28-12 28l-128 1c-5-11-13-30-22-56-10-26-15-42-15-46 0-5 2-8 4-11 3-3 7-5 13-7 5-2 10-3 14-4 3-1 9-2 16-2 7-1 11-2 12-2 0-3 0-9 0-16 0-2 0-4-1-8-11 0-27 1-49 3-23 2-39 3-50 3-2 0-4-1-8-1-3-1-5-1-6-1-15-3-33-4-54-4z"/>
<glyph glyph-name="floppy-o" unicode="&#57376;" d="M146 73l220 0 0 110-220 0z m256 0l37 0 0 256c0 3-1 6-3 11-2 5-4 8-6 10l-80 80c-2 2-5 4-10 6-4 2-8 3-11 3l0-119c0-8-3-14-8-19-5-6-12-8-19-8l-165 0c-7 0-14 2-19 8-6 5-8 11-8 19l0 119-37 0 0-366 37 0 0 119c0 8 2 14 8 19 5 6 12 8 19 8l238 0c7 0 14-2 19-8 6-5 8-11 8-19z m-109 265l0 92c0 2-1 4-3 6-2 2-4 3-7 3l-54 0c-3 0-5-1-7-3-2-2-3-4-3-6l0-92c0-2 1-4 3-6 2-2 4-3 7-3l54 0c3 0 5 1 7 3 2 2 3 4 3 6z m182-9l0-265c0-8-2-14-8-19-5-6-11-8-19-8l-384 0c-8 0-14 2-19 8-6 5-8 11-8 19l0 384c0 8 2 14 8 19 5 6 11 8 19 8l265 0c8 0 16-1 25-5 9-4 17-9 22-14l80-80c5-5 10-13 14-22 4-9 5-17 5-25z"/>
<glyph glyph-name="inbox" unicode="&#57377;" d="M329 238l90 0c0 0 0 1-1 2 0 1 0 2 0 2l-61 142-202 0-61-142c0 0 0-1 0-2-1-1-1-2-1-2l90 0 27-55 92 0z m146-9l0-138c0-5-1-9-5-12-4-4-8-6-13-6l-402 0c-5 0-9 2-13 6-4 3-5 7-5 12l0 138c0 12 2 24 7 35l68 158c2 5 5 9 10 12 5 3 10 5 15 5l238 0c5 0 10-2 15-5 5-3 8-7 10-12l68-158c5-11 7-23 7-35z"/>
<glyph glyph-name="leaf" unicode="&#57378;" d="M366 311c0 5-2 9-6 13-3 3-8 5-13 5-32 0-63-5-90-14-28-9-53-22-75-38-21-16-44-37-67-63-3-4-5-8-5-13 0-5 2-9 5-13 4-3 8-5 13-5 5 0 9 2 13 5 5 5 12 12 21 21 9 9 15 15 19 18 26 24 52 41 77 51 25 10 55 15 89 15 5 0 10 1 13 5 4 4 6 8 6 13z m146 56c0-18-2-36-6-55-8-42-26-79-52-109-27-30-61-56-103-77-40-20-82-31-125-31-28 0-55 5-81 14-3 1-12 5-26 12-13 7-23 10-27 10-3 0-7-3-11-9-5-6-9-12-13-20-4-7-9-14-15-20-6-6-12-9-17-9-6 0-11 1-15 3-4 2-7 5-9 7-2 3-4 7-7 12-1 1-1 2-2 3-1 2-1 3-2 3 0 1 0 2-1 3 0 1 0 2 0 4 0 6 3 13 9 21 6 7 12 13 19 18 7 6 14 11 20 16 6 6 9 11 9 14 0 1-2 5-4 11-3 6-5 11-5 13-2 9-3 19-3 29 0 22 5 43 13 63 8 20 19 38 34 53 14 15 30 28 49 40 18 11 37 20 58 27 10 3 24 6 41 7 17 2 35 2 52 3 17 0 34 1 51 1 17 1 32 4 46 7 14 4 25 9 33 16l8 9 9 8 7 6 11 4 12 1c8 0 14-4 20-13 6-8 11-19 14-32 3-12 5-24 7-35 1-11 2-20 2-28z"/>
<glyph glyph-name="lemon-o" unicode="&#57379;" d="M439 276c0 8-1 19-2 32-2 14-3 23-6 28-2 6-3 10-4 13-1 2-2 6-3 10-1 4-1 9-1 14 0 4 0 11 1 19 1 9 2 16 2 20 0 7-1 12-3 15-1 1-2 1-4 1-3 0-9-1-16-2-8 0-13-1-17-1-12 0-28 2-51 7-22 5-38 7-50 7-8 0-17-1-27-3-9-3-17-5-24-7-6-2-15-6-25-10-27-10-46-20-58-29-18-14-34-32-46-54-12-23-20-45-25-68-5-23-7-46-7-71 0-7 1-19 4-34 2-15 3-27 3-35 0-4-1-10-3-19-2-8-3-14-3-18 0-5 1-8 3-11 3-3 6-4 10-4 5 0 12 1 21 3 9 2 16 3 21 3 11 0 27-1 48-4 22-3 38-5 49-5 34 0 61 4 81 11 24 8 47 23 67 43 20 21 36 44 48 70 11 27 17 53 17 79z m36 1c0-32-7-63-20-94-13-31-32-58-56-82-24-24-51-41-80-52-24-8-55-12-93-12-11 0-27 1-49 4-21 2-37 4-48 4-5 0-12-2-21-4-9-3-16-4-21-4-14 0-26 5-35 15-10 11-15 23-15 37 0 5 1 11 4 20 2 8 3 14 3 19 0 7-1 19-4 34-2 15-3 27-3 35 0 21 1 42 5 62 3 20 8 40 15 60 7 19 17 38 29 55 12 18 26 32 43 45 15 11 37 23 66 34 37 15 67 22 90 22 12 0 29-2 51-6 22-5 38-7 49-7 4 0 9 0 16 1 8 1 13 2 17 2 15 0 27-5 34-15 7-9 10-22 10-38 0-5 0-11-1-20-1-8-2-15-2-19 0-2 1-4 1-5 0-2 0-4 1-5 0-2 0-3 1-4 0-1 1-3 2-5 0-2 1-3 1-5 3-7 6-18 8-33 1-15 2-28 2-39z"/>
<glyph glyph-name="line-chart" unicode="&#57380;" d="M549 73l0-36-586 0 0 438 37 0 0-402z m-37 357l0-125c0-4-2-6-6-8-3-2-7-1-10 2l-34 35-181-181c-2-2-4-3-7-3-2 0-4 1-6 3l-67 66-119-118-55 54 168 168c1 1 4 2 6 2 3 0 5-1 7-2l66-67 133 133-35 34c-3 3-3 7-2 10 2 4 5 6 9 6l124 0c3 0 5-1 6-3 2-1 3-4 3-6z"/>
<glyph glyph-name="list-alt" unicode="&#57381;" d="M110 174l0-19c0-2-1-4-3-6-2-2-4-3-6-3l-19 0c-2 0-4 1-6 3-2 2-3 4-3 6l0 19c0 2 1 4 3 6 2 2 4 3 6 3l19 0c2 0 4-1 6-3 2-2 3-4 3-6z m0 73l0-18c0-3-1-5-3-7-2-2-4-3-6-3l-19 0c-2 0-4 1-6 3-2 2-3 4-3 7l0 18c0 2 1 4 3 6 2 2 4 3 6 3l19 0c2 0 4-1 6-3 2-2 3-4 3-6z m0 73l0-18c0-3-1-5-3-7-2-2-4-2-6-2l-19 0c-2 0-4 0-6 2-2 2-3 4-3 7l0 18c0 2 1 5 3 6 2 2 4 3 6 3l19 0c2 0 4-1 6-3 2-1 3-4 3-6z m329-146l0-19c0-2-1-4-3-6-2-2-4-3-6-3l-275 0c-2 0-4 1-6 3-2 2-3 4-3 6l0 19c0 2 1 4 3 6 2 2 4 3 6 3l275 0c2 0 4-1 6-3 2-2 3-4 3-6z m0 73l0-18c0-3-1-5-3-7-2-2-4-3-6-3l-275 0c-2 0-4 1-6 3-2 2-3 4-3 7l0 18c0 2 1 4 3 6 2 2 4 3 6 3l275 0c2 0 4-1 6-3 2-2 3-4 3-6z m0 73l0-18c0-3-1-5-3-7-2-2-4-2-6-2l-275 0c-2 0-4 0-6 2-2 2-3 4-3 7l0 18c0 2 1 5 3 6 2 2 4 3 6 3l275 0c2 0 4-1 6-3 2-1 3-4 3-6z m36-201l0 238c0 2 0 4-2 6-2 2-4 3-7 3l-420 0c-3 0-5-1-7-3-2-2-2-4-2-6l0-238c0-3 0-5 2-7 2-1 4-2 7-2l420 0c3 0 5 1 7 2 2 2 2 4 2 7z m37 311l0-311c0-13-4-23-13-32-9-9-20-14-33-14l-420 0c-13 0-24 5-33 14-9 9-13 19-13 32l0 311c0 12 4 23 13 32 9 9 20 13 33 13l420 0c13 0 24-4 33-13 9-9 13-20 13-32z"/>
<glyph glyph-name="list" unicode="&#57382;" d="M73 137l0-55c0-2-1-4-3-6-1-2-4-3-6-3l-55 0c-2 0-4 1-6 3-2 2-3 4-3 6l0 55c0 3 1 5 3 7 2 1 4 2 6 2l55 0c2 0 5-1 6-2 2-2 3-4 3-7z m0 110l0-55c0-2-1-5-3-6-1-2-4-3-6-3l-55 0c-2 0-4 1-6 3-2 1-3 4-3 6l0 55c0 2 1 4 3 6 2 2 4 3 6 3l55 0c2 0 5-1 6-3 2-2 3-4 3-6z m0 110l0-55c0-3-1-5-3-7-1-2-4-2-6-2l-55 0c-2 0-4 0-6 2-2 2-3 4-3 7l0 55c0 2 1 4 3 6 2 2 4 3 6 3l55 0c2 0 5-1 6-3 2-2 3-4 3-6z m439-220l0-55c0-2-1-4-3-6-2-2-4-3-6-3l-384 0c-3 0-5 1-7 3-1 2-2 4-2 6l0 55c0 3 1 5 2 7 2 1 4 2 7 2l384 0c2 0 4-1 6-2 2-2 3-4 3-7z m-439 329l0-55c0-2-1-4-3-6-1-2-4-3-6-3l-55 0c-2 0-4 1-6 3-2 2-3 4-3 6l0 55c0 3 1 5 3 7 2 2 4 2 6 2l55 0c2 0 5 0 6-2 2-2 3-4 3-7z m439-219l0-55c0-2-1-5-3-6-2-2-4-3-6-3l-384 0c-3 0-5 1-7 3-1 1-2 4-2 6l0 55c0 2 1 4 2 6 2 2 4 3 7 3l384 0c2 0 4-1 6-3 2-2 3-4 3-6z m0 110l0-55c0-3-1-5-3-7-2-2-4-2-6-2l-384 0c-3 0-5 0-7 2-1 2-2 4-2 7l0 55c0 2 1 4 2 6 2 2 4 3 7 3l384 0c2 0 4-1 6-3 2-2 3-4 3-6z m0 109l0-55c0-2-1-4-3-6-2-2-4-3-6-3l-384 0c-3 0-5 1-7 3-1 2-2 4-2 6l0 55c0 3 1 5 2 7 2 2 4 2 7 2l384 0c2 0 4 0 6-2 2-2 3-4 3-7z"/>
<glyph glyph-name="map-marker" unicode="&#57383;" d="M329 329c0 20-7 38-21 52-15 14-32 21-52 21-20 0-37-7-52-21-14-14-21-32-21-52 0-20 7-37 21-52 15-14 32-21 52-21 20 0 37 7 52 21 14 15 21 32 21 52z m73 0c0-21-3-38-9-51l-104-221c-3-6-8-11-14-15-6-4-12-5-19-5-7 0-13 1-19 5-6 4-11 9-14 15l-104 221c-6 13-9 30-9 51 0 41 14 75 43 104 28 28 63 42 103 42 40 0 75-14 103-42 29-29 43-63 43-104z"/>
<glyph glyph-name="male" unicode="&#57384;" d="M402 311l0-119c0-8-2-14-8-19-5-6-12-8-19-8-8 0-14 2-20 8-5 5-8 11-8 19l0 101-18 0 0-261c0-9-3-16-9-23-7-6-14-9-23-9-9 0-16 3-22 9-7 7-10 14-10 23l0 133-18 0 0-133c0-9-3-16-10-23-6-6-13-9-22-9-9 0-16 3-23 9-6 7-9 14-9 23l0 261-18 0 0-101c0-8-3-14-8-19-6-6-12-8-20-8-7 0-14 2-19 8-6 5-8 11-8 19l0 119c0 15 5 28 16 39 10 10 23 16 39 16l182 0c16 0 29-6 39-16 11-11 16-24 16-39z m-82 128c0-18-6-33-19-45-12-13-27-19-45-19-18 0-33 6-45 19-13 12-19 27-19 45 0 18 6 33 19 45 12 13 27 19 45 19 18 0 33-6 45-19 13-12 19-27 19-45z"/>
<glyph glyph-name="map-pin" unicode="&#57385;" d="M256 201c13 0 25 2 37 4l0-187c0-5-2-9-6-13-3-3-8-5-13-5l-36 0c-5 0-10 2-13 5-4 4-6 8-6 13l0 187c12-2 24-4 37-4z m0 311c40 0 75-14 103-43 29-28 43-63 43-103 0-41-14-75-43-104-28-28-63-43-103-43-40 0-75 15-103 43-29 29-43 63-43 104 0 40 14 75 43 103 28 29 63 43 103 43z m0-64c3 0 5 1 7 3 1 1 2 3 2 6 0 3-1 5-2 7-2 1-4 2-7 2-28 0-52-10-71-29-20-20-30-43-30-71 0-3 1-5 3-7 2-2 4-2 7-2 2 0 4 0 6 2 2 2 3 4 3 7 0 22 8 42 24 58 16 16 35 24 58 24z"/>
<glyph glyph-name="money" unicode="&#57386;" d="M201 183l110 0 0 27-37 0 0 128-32 0-43-39 22-23c8 7 14 13 16 17l1 0 0-83-37 0z m146 73c0-13-2-27-6-41-4-13-9-26-17-38-7-12-17-21-29-29-12-7-25-11-39-11-14 0-27 4-39 11-12 8-22 17-29 29-8 12-13 25-17 38-4 14-6 28-6 41 0 13 2 27 6 41 4 13 9 26 17 38 7 12 17 21 29 29 12 7 25 11 39 11 14 0 27-4 39-11 12-8 22-17 29-29 8-12 13-25 17-38 4-14 6-28 6-41z m147-73l0 146c-20 0-38 7-52 22-14 14-21 31-21 51l-330 0c0-20-7-37-21-51-14-15-32-22-52-22l0-146c20 0 38-7 52-22 14-14 21-31 21-51l330 0c0 20 7 37 21 51 14 15 32 22 52 22z m36 238l0-330c0-5-2-9-5-12-4-4-8-6-13-6l-512 0c-5 0-9 2-13 6-3 3-5 7-5 12l0 330c0 5 2 9 5 12 4 4 8 6 13 6l512 0c5 0 9-2 13-6 3-3 5-7 5-12z"/>
<glyph glyph-name="paperclip" unicode="&#57387;" d="M456 116c0-22-8-41-23-56-15-15-33-22-56-22-25 0-48 9-67 28l-222 222c-21 22-32 48-32 77 0 31 10 56 31 78 21 21 47 31 77 31 30 0 56-10 78-32l173-173c2-2 3-4 3-6 0-3-3-8-9-14-6-6-10-8-13-8-2 0-5 1-7 2l-173 174c-15 15-32 22-51 22-21 0-38-7-52-22-13-14-20-31-20-51 0-20 7-38 21-52l222-222c12-12 26-18 41-18 13 0 23 4 31 12 8 8 12 18 12 30 0 16-6 30-18 42l-166 166c-5 4-11 7-17 7-6 0-11-2-14-6-4-3-6-8-6-14 0-6 3-11 8-16l117-118c2-1 3-4 3-6 0-3-3-7-9-13-6-6-11-9-14-9-2 0-4 1-6 3l-117 117c-12 11-18 26-18 42 0 16 5 29 16 40 11 11 24 16 40 16 17 0 31-6 42-18l166-166c19-18 29-41 29-67z"/>
<glyph glyph-name="pencil" unicode="&#57388;" d="M140 73l26 26-67 67-26-26 0-30 37 0 0-37z m150 265c0 4-2 7-7 7-1 0-3-1-4-2l-155-155c-2-2-2-3-2-5 0-4 2-6 6-6 2 0 4 0 5 2l155 154c1 2 2 3 2 5z m-16 55l119-119-238-237-118 0 0 118z m195-27c0-10-3-19-10-26l-48-47-118 118 47 48c7 7 15 10 26 10 10 0 18-3 26-10l67-67c7-8 10-16 10-26z"/>
<glyph glyph-name="plus-circle" unicode="&#57389;" d="M384 238l0 36c0 5-2 10-5 13-4 4-8 6-13 6l-73 0 0 73c0 5-2 9-6 13-3 3-8 5-13 5l-36 0c-5 0-10-2-13-5-4-4-6-8-6-13l0-73-73 0c-5 0-9-2-13-6-3-3-5-8-5-13l0-36c0-5 2-10 5-13 4-4 8-6 13-6l73 0 0-73c0-5 2-9 6-13 3-3 8-5 13-5l36 0c5 0 10 2 13 5 4 4 6 8 6 13l0 73 73 0c5 0 9 2 13 6 3 3 5 8 5 13z m91 18c0-40-9-77-29-110-20-34-46-60-80-80-33-20-70-29-110-29-40 0-77 9-110 29-34 20-60 46-80 80-20 33-29 70-29 110 0 40 9 77 29 110 20 34 46 60 80 80 33 20 70 29 110 29 40 0 77-9 110-29 34-20 60-46 80-80 20-33 29-70 29-110z"/>
<glyph glyph-name="power-off" unicode="&#57390;" d="M475 256c0-30-5-58-17-85-12-27-27-51-47-70-19-20-43-35-70-47-27-12-55-17-85-17-30 0-58 5-85 17-27 12-51 27-70 47-20 19-35 43-47 70-12 27-17 55-17 85 0 35 7 67 23 98 15 31 36 56 64 77 8 6 18 9 28 7 10-1 18-6 23-14 7-8 9-17 7-27-1-10-6-18-14-24-18-14-33-31-43-52-10-20-15-42-15-65 0-20 4-39 11-57 8-18 18-33 32-46 13-14 28-24 46-32 18-7 37-11 57-11 20 0 39 4 57 11 18 8 33 18 46 32 14 13 24 28 32 46 7 18 11 37 11 57 0 23-5 45-15 65-10 21-25 38-43 52-8 6-13 14-14 24-2 10 0 19 7 27 5 8 13 13 24 14 10 2 19-1 27-7 28-21 49-46 64-77 16-31 23-63 23-98z m-182 219l0-182c0-10-4-19-11-26-8-7-16-11-26-11-10 0-18 4-26 11-7 7-11 16-11 26l0 182c0 10 4 19 11 26 8 7 16 11 26 11 10 0 18-4 26-11 7-7 11-16 11-26z"/>
<glyph glyph-name="plus-square-o" unicode="&#57391;" d="M384 283l0-18c0-3-1-5-3-6-1-2-3-3-6-3l-101 0 0-101c0-2-1-4-2-6-2-2-4-3-7-3l-18 0c-3 0-5 1-7 3-1 2-2 4-2 6l0 101-101 0c-3 0-5 1-6 3-2 1-3 3-3 6l0 18c0 3 1 5 3 7 1 2 3 3 6 3l101 0 0 100c0 3 1 5 2 7 2 1 4 2 7 2l18 0c3 0 5-1 7-2 1-2 2-4 2-7l0-100 101 0c3 0 5-1 6-3 2-2 3-4 3-7z m37-128l0 238c0 13-5 23-14 32-9 9-20 14-32 14l-238 0c-12 0-23-5-32-14-9-9-14-19-14-32l0-238c0-12 5-23 14-32 9-9 20-13 32-13l238 0c12 0 23 4 32 13 9 9 14 20 14 32z m36 238l0-238c0-22-8-42-24-58-16-16-35-24-58-24l-238 0c-23 0-42 8-58 24-16 16-24 36-24 58l0 238c0 23 8 42 24 58 16 16 35 24 58 24l238 0c23 0 42-8 58-24 16-16 24-35 24-58z"/>
<glyph glyph-name="plus-square" unicode="&#57392;" d="M402 238l0 36c0 5-2 10-5 13-4 4-8 6-13 6l-91 0 0 91c0 5-2 9-6 13-3 3-8 5-13 5l-36 0c-5 0-10-2-13-5-4-4-6-8-6-13l0-91-91 0c-5 0-9-2-13-6-3-3-5-8-5-13l0-36c0-5 2-10 5-13 4-4 8-6 13-6l91 0 0-91c0-5 2-9 6-13 3-3 8-5 13-5l36 0c5 0 10 2 13 5 4 4 6 8 6 13l0 91 91 0c5 0 9 2 13 6 3 3 5 8 5 13z m73 155l0-274c0-23-8-42-24-58-16-16-35-24-58-24l-274 0c-23 0-42 8-58 24-16 16-24 35-24 58l0 274c0 23 8 42 24 58 16 16 35 24 58 24l274 0c23 0 42-8 58-24 16-16 24-35 24-58z"/>
<glyph glyph-name="print" unicode="&#57393;" d="M128 73l256 0 0 73-256 0z m0 183l256 0 0 110-46 0c-7 0-14 2-19 8-5 5-8 12-8 19l0 46-183 0z m329-18c0 5-2 9-5 13-4 3-8 5-13 5-5 0-9-2-13-5-4-4-5-8-5-13 0-5 1-10 5-13 4-4 8-6 13-6 5 0 9 2 13 6 3 3 5 8 5 13z m37 0l0-119c0-3-1-5-3-7-2-1-4-2-6-2l-64 0 0-46c0-8-3-14-8-19-6-6-12-8-20-8l-274 0c-8 0-14 2-20 8-5 5-8 11-8 19l0 46-64 0c-2 0-4 1-6 2-2 2-3 4-3 7l0 119c0 15 6 28 16 38 11 11 24 17 39 17l18 0 0 155c0 8 3 14 8 19 6 6 12 8 20 8l192 0c7 0 16-1 25-5 9-4 16-9 22-14l43-43c5-6 10-13 14-22 4-9 6-18 6-25l0-73 18 0c15 0 28-6 39-17 10-10 16-23 16-38z"/>
<glyph glyph-name="trash" unicode="&#57394;" d="M201 119l0 201c0 3-1 5-2 7-2 1-4 2-7 2l-18 0c-3 0-5-1-7-2-2-2-2-4-2-7l0-201c0-3 0-5 2-7 2-1 4-2 7-2l18 0c3 0 5 1 7 2 1 2 2 4 2 7z m73 0l0 201c0 3-1 5-2 7-2 1-4 2-7 2l-18 0c-3 0-5-1-7-2-1-2-2-4-2-7l0-201c0-3 1-5 2-7 2-1 4-2 7-2l18 0c3 0 5 1 7 2 1 2 2 4 2 7z m73 0l0 201c0 3 0 5-2 7-2 1-4 2-7 2l-18 0c-3 0-5-1-7-2-1-2-2-4-2-7l0-201c0-3 1-5 2-7 2-1 4-2 7-2l18 0c3 0 5 1 7 2 2 2 2 4 2 7z m-155 283l128 0-14 34c-1 1-3 2-5 3l-90 0c-2-1-4-2-5-3z m265-9l0-18c0-3-1-5-2-7-2-1-4-2-7-2l-27 0 0-271c0-16-5-30-14-41-9-12-20-17-32-17l-238 0c-12 0-23 5-32 16-9 11-14 25-14 41l0 272-27 0c-3 0-5 1-7 2-1 2-2 4-2 7l0 18c0 3 1 5 2 7 2 1 4 2 7 2l88 0 20 48c3 7 8 13 16 18 7 5 15 7 22 7l92 0c7 0 15-2 22-7 8-5 13-11 16-18l20-48 88 0c3 0 5-1 7-2 1-2 2-4 2-7z"/>
<glyph glyph-name="trash-o" unicode="&#57395;" d="M201 302l0-165c0-3-1-5-2-6-2-2-4-3-7-3l-18 0c-3 0-5 1-7 3-2 1-2 3-2 6l0 165c0 2 0 5 2 6 2 2 4 3 7 3l18 0c3 0 5-1 7-3 1-1 2-4 2-6z m73 0l0-165c0-3-1-5-2-6-2-2-4-3-7-3l-18 0c-3 0-5 1-7 3-1 1-2 3-2 6l0 165c0 2 1 5 2 6 2 2 4 3 7 3l18 0c3 0 5-1 7-3 1-1 2-4 2-6z m73 0l0-165c0-3 0-5-2-6-2-2-4-3-7-3l-18 0c-3 0-5 1-7 3-1 1-2 3-2 6l0 165c0 2 1 5 2 6 2 2 4 3 7 3l18 0c3 0 5-1 7-3 2-1 2-4 2-6z m37-207l0 271-256 0 0-271c0-4 1-8 2-12 1-3 3-6 4-7 2-2 3-3 3-3l238 0c0 0 1 1 3 3 1 1 3 4 4 7 1 4 2 8 2 12z m-192 307l128 0-14 34c-1 1-3 2-5 3l-90 0c-2-1-4-2-5-3z m265-9l0-18c0-3-1-5-2-7-2-1-4-2-7-2l-27 0 0-271c0-16-5-30-14-41-9-12-20-17-32-17l-238 0c-12 0-23 5-32 16-9 11-14 25-14 41l0 272-27 0c-3 0-5 1-7 2-1 2-2 4-2 7l0 18c0 3 1 5 2 7 2 1 4 2 7 2l88 0 20 48c3 7 8 13 16 18 7 5 15 7 22 7l92 0c7 0 15-2 22-7 8-5 13-11 16-18l20-48 88 0c3 0 5-1 7-2 1-2 2-4 2-7z"/>
<glyph glyph-name="globe" unicode="&#57396;" d="M256 448c-106 0-192-86-192-192 0-106 86-192 192-192 13 0 26 1 38 4-5 2-6 20-1 30 6 11 23 40 6 49-17 10-12 14-23 25-10 11-6 13-6 16-3 9 10 24 10 26 1 1 1 7 1 8-1 2-8 7-10 7-2 0-3-3-5-3-3-1-14 7-17 8-2 2-3 7-7 10-3 4-4 1-9 3-5 2-22 8-35 13-13 6-14 13-14 18 0 6-8 13-12 18-3 6-4 13-5 12-2-2 7-22 5-22-1-1-4 5-8 10-3 5 4 2-8 26-12 24 4 36 5 48 1 12 10-5 5 3-5 8 0 25-3 31-4 6-25-7-25-7 0 6 18 16 31 25 14 9 22 2 32-1 11-4 11-3 8 1-4 3 1 5 10 3 8-1 10-11 23-10 12 1 1-2 3-5 1-4-2-3-11-9-8-6 1-6 15-16 15-11 10 7 9 15-2 8 11 1 11 1 9-6 7 0 13-2 7-2 25-17 25-17-22-12-8-14-5-16 4-3-7-9-7-9-5 5-6 0-9-1-3-2 0-6 0-6-16-3-12-19-12-23 0-4-10-10-12-16-3-5 6-18 2-18-5-1-10 18-36 11-8-2-26-11-17-30 10-18 25 5 31 3 5-3-2-15-1-15 1 0 15 0 16-16 1-16 21-15 25-15 4-1 19 11 21 12 2 1 10 8 28-3 18-10 27-9 33-13 7-4 2-13 8-16 6-2 29 1 35-8 6-10-24-58-33-63-10-5-14-17-23-25-10-8-23-17-35-25-11-6-13-18-18-21 86 19 150 95 150 187 0 106-86 192-192 192z m45-180c-3-1-8-6-21 2-14 8-23 6-24 8 0 0-1 3 5 3 12 2 27-11 30-11 3 0 5 4 11 2 6-2 2-3-1-4z m-63 161c-1 1 1 2 3 4 1 1 0 3 1 4 3 3 17 6 14-1-3-8-16-9-18-7z m34-25c-5 1-16 2-14 4 8 8-3 10-10 11-6 0-9 4-6 4 4 1 17 0 19-2 3-2 15-7 15-10 1-4 0-7-4-7z m40 2c-3-3-22 11-26 14-16 13-24 9-27 11-4 2-2 5 3 10 5 4 19-2 27-3 8-1 18-7 18-15 0-7 9-14 5-17z"/>
<glyph glyph-name="graph" unicode="&#57397;" d="M352 384l-96 0 0-320 96 0z m128-96l-96 0 0-224 96 0z m-448-256l0 64 32 0 0 32-32 0 0 64 32 0 0 32-32 0 0 64 32 0 0 32-32 0 0 64 32 0 0 32-32 0 0 64 32 0 0 32-64 0 0-512 512 0 0 32z m192 192l-96 0 0-160 96 0z"/>
<glyph glyph-name="heart" unicode="&#57398;" d="M256 80c200 157 192 212 192 256 0 43-36 96-96 96-60 0-96-64-96-64 0 0-36 64-96 64-60 0-96-53-96-96 0-44-7-99 192-256z"/>
<glyph glyph-name="dollar" unicode="&#57399;" d="M278 283l0 51c17-4 33-12 47-24l0 0c1-1 2-1 4-1 1 0 3 1 4 2l0 0 22 31 0 0c1 1 1 2 1 4 0 1 0 3-2 4-20 19-46 30-76 33l0 30 0 0c0 3-3 6-6 6l-23 0c-4 0-6-3-6-6l0-29c-51-5-81-38-81-75 0-51 42-66 81-76l0-58c-25 5-46 18-59 32 0 0-1 0-1 0 0 0 0 1 0 1l0 0c-1 0-2 1-4 1-2 0-4-1-5-3l0 0-21-32 0 0c-1-1-1-2-1-3 0-2 0-4 2-5l0 0c20-21 49-36 89-39l0-28c0-3 2-6 6-6l23 0c3 0 6 3 6 6l0 0 0 28c55 6 82 38 82 79 0 52-43 67-82 77z m-35 8c-16 5-26 11-26 22 0 12 9 21 26 24z m35-116l0 50c16-5 28-11 28-24 0-12-9-23-28-26z"/>
<glyph glyph-name="dollar-bill" unicode="&#57400;" d="M480 358l-1 0c0 11-8 20-19 20l-408 0c-11 0-20-9-20-20l0-204c0-11 9-20 20-20l408 0c11 0 19 9 19 20l0 0 1 0z m-77-28l0 18c0 2 2 4 4 4 0 0 0 0 0 0l0 0 43 0 0 0c0 0 0 0 0 0 2 0 4-2 4-4l0-43c0-2-2-4-4-4 0 0 0 0 0 0l0 0-17 0c-3 0-4 2-4 4l0 21-22 0 0 0c0 0 0 0 0 0-2 0-4 2-4 4z m-294-148l0-18c0-2-2-4-4-4 0 0 0 0 0 0l0 0-43 0 0 0c0 0 0 0 0 0-2 0-4 2-4 4l0 43c0 2 2 4 4 4 0 0 0 0 0 0l0 0 17 0c3 0 4-2 4-4l0-21 22 0 0 0c0 0 0 0 0 0 2 0 4-2 4-4z m0 166l0-17c0-3-2-5-4-5l-21 0 0-21-1 0c0 0 1 0 1 0 0-2-2-4-4-4l-18 0c-2 0-4 2-4 4 0 0 0 0 0 0l0 0 0 43 0 0c0 0 0 0 0 0 0 2 2 4 4 4l43 0c2 0 4-2 4-4 0 0 0 0 0 0z m147-188c-53 0-96 43-96 96 0 53 43 96 96 96 53 0 96-43 96-96 0-53-43-96-96-96z m198 47l0-43 0 0c0 0 0 0 0 0 0-2-2-4-4-4l-43 0c-2 0-4 2-4 4 0 0 0 0 0 0l0 0 0 17c0 3 2 5 4 5l21 0 0 21 1 0c-1 0-1 0-1 0 0 2 2 4 4 4l18 0c2 0 4-2 4-4 0 0 0 0 0 0z m-198 120c-39 0-71-32-71-71 0-15 5-29 13-40l0 0c0 4 2 6 4 8l29 13 11 5c-5 3-9 8-12 14-2 5-4 11-4 17 0 3 1 7 2 10 4 14 15 24 28 24 14 0 25-10 28-25 1-3 2-6 2-9 0-6-2-11-4-16-3-6-7-11-12-14l12-6 28-13c2-2 4-4 4-8l0 0c8 11 13 25 13 40 0 39-32 71-71 71z"/>
<glyph glyph-name="trees" unicode="&#57401;" d="M471 97l0 0-37 65 14 0 0 0c3 0 6 3 6 6 0 1 0 1-1 2l0 0-34 60 8 0 0 0c2 0 4 2 4 4 0 1 0 1 0 2l0 0-51 87 0 0c-1 2-3 4-6 4-2 0-5-2-6-4l0 0-50-87 0 0c0-1 0-1 0-2 0-2 1-4 4-4l0 0 8 0-34-60 0 0c-1-1-1-1-1-2 0-3 2-6 5-6l0 0 15 0-11-19-43 75 21 0 0 0c4 0 8 3 8 8 0 1 0 2-1 3l0 1-49 84 12 0 0 0c3 0 6 2 6 5 0 1 0 2-1 3l0 0-71 123 0 0c-1 3-4 5-8 5-4 0-7-2-9-5l-71-123 0 0c0-1 0-2 0-3 0-3 2-5 5-5l0 0 12 0-48-83c-1-2-2-3-2-5 0-5 4-8 8-8l0 0 21 0-52-90c-1-2-2-4-2-6 0-5 5-9 10-9l0 0 101 0 0-44c0-4 4-7 8-7l37 0c5 0 8 3 8 7l0 44 83 0-9-16 0 0c-1-1-1-2-1-3 0-4 3-7 7-7l0 0 72 0 0-20c0-3 2-5 5-5l27 0c3 0 5 2 5 5l0 20 72 0 0 0c4 0 7 3 7 7 0 1-1 2-1 3z"/>
<glyph glyph-name="widget" unicode="&#57402;" d="M453 290l-52 5c-4 12-9 25-15 36l33 41c4 4 4 11 0 15l-32 32c-3 2-5 3-8 3-3 0-5-1-7-3l-41-33c-12 6-24 11-36 15l-5 52c-1 6-6 10-11 10l-46 0c-5 0-10-4-11-10l-5-52c-12-4-24-9-36-15l-41 33c-2 2-4 3-7 3-3 0-5-1-8-3l-32-32c-4-4-4-11 0-15l33-41c-6-11-11-24-15-36l-52-5c-6-1-10-6-10-11l0-46c0-5 4-10 10-11l52-5c4-12 9-24 15-36l-33-41c-4-4-4-11 0-15l32-32c3-2 5-3 8-3 3 0 5 1 7 3l41 33c12-6 24-11 36-15l5-52c1-6 6-10 11-10l46 0c5 0 10 4 11 10l5 52c12 4 24 9 36 15l41-33c2-2 4-3 7-3 3 0 5 1 8 3l32 32c4 4 4 11 0 15l-33 41c6 12 11 24 15 36l52 5c6 1 10 6 10 11l0 46c0 5-4 10-10 11z m-197-95c-34 0-61 27-61 61 0 34 27 61 61 61 34 0 61-27 61-61 0-34-27-61-61-61z"/>
<glyph glyph-name="cog" unicode="&#57403;" d="M430 256c0-25 14-45 41-62-4-14-10-28-17-42-24 6-47-2-70-23-18-20-24-43-17-70-14-6-28-13-43-18-16 28-39 42-68 42-29 0-52-14-68-42-15 5-29 12-43 18 7 28 1 51-17 70-18 18-42 24-70 17-4 9-10 23-17 42 28 18 42 41 42 68 0 25-14 46-42 63 7 20 13 34 17 42 26-6 49 2 70 23 18 19 24 42 17 70 15 7 29 13 43 17 16-27 39-41 68-41 29 0 52 14 68 41 14-4 28-10 43-17-7-27-1-50 17-70 23-21 46-29 70-23 7-14 13-28 17-42-27-17-41-38-41-63m-174-93c26 0 48 9 66 27 18 18 27 40 27 66 0 26-9 48-27 67-18 18-40 27-66 27-26 0-48-9-66-27-18-19-27-41-27-67 0-26 9-48 27-66 18-18 40-27 66-27"/>
<glyph glyph-name="briefcase-1" unicode="&#57404;" d="M233 244c0 0 0-51 0-51 0 0-233 0-233 0 3 77 4 126 5 149 1 37 19 55 51 55 0 0 82 0 82 0 6 9 12 21 19 35 7 14 11 21 12 23 5 9 9 14 12 16 3 2 9 3 19 3 0 0 113 0 113 0 9 0 15-1 19-3 3-3 7-8 11-16 6-11 16-30 31-58 0 0 82 0 82 0 32 0 50-18 51-55 0 0 5-149 5-149 0 0-232 0-232 0 0 0 0 51 0 51 0 0-47 0-47 0m-37 181c0 0-15-28-15-28 0 0 150 0 150 0 0 0-15 28-15 28-4 9-12 13-21 13 0 0-78 0-78 0-9 0-17-4-21-13m84-309c0 0 0 51 0 51 0 0 220 0 220 0-2-30-4-58-5-85-2-29-18-43-46-43 0 0-384 0-384 0-31 0-47 14-47 43 0 0-5 85-5 85 0 0 220 0 220 0 0 0 0-51 0-51 0 0 47 0 47 0"/>
<glyph glyph-name="archive" unicode="&#57405;" d="M435 384c0 0 0-26 0-26 0 0-357 0-357 0 0 0 0 26 0 26 0 8 3 13 7 18 5 4 9 7 13 8 0 0 6 0 6 0 0 0 305 0 305 0 2 0 5-1 7-1 3 0 7-3 12-7 4-5 7-10 7-18m-76 77c2 0 4 0 7-1 3 0 7-2 11-7 5-4 8-10 8-18 0 0-255 0-255 0 0 8 2 14 6 18 5 5 9 7 13 8 0 0 6 0 6 0 0 0 204 0 204 0m127-103c12-11 18-18 19-23 3-6 3-16 0-28 0 0-38-230-38-230-2-8-5-14-11-18-5-5-10-7-14-8 0 0-7 0-7 0 0 0-357 0-357 0-17 0-28 9-30 26-2 9-9 47-20 114-11 67-18 106-20 116-4 8-4 15-2 23 3 7 4 12 5 13 1 1 5 5 11 10 0 0 5 5 5 5 0 0 16 16 16 16 0 0 0-41 0-41 0 0 428 0 428 0 0 0 0 41 0 41 0 0 15-16 15-16m-127-138c0 0 0 51 0 51 0 0-36 0-36 0 0 0 0-41 0-41 0 0-133 0-133 0 0 0 0 41 0 41 0 0-35 0-35 0 0 0 0-51 0-51 0-17 8-25 25-25 0 0 153 0 153 0 8 0 14 2 18 6 5 4 7 8 7 12 0 0 1 7 1 7"/>
<glyph glyph-name="attach" unicode="&#57406;" d="M141 5c-35 0-64 12-87 37-25 24-38 52-38 85-1 33 13 65 43 97 0 0 254 254 254 254 27 28 57 37 89 28 15-4 28-12 40-24 12-12 20-26 24-41 9-32 0-62-27-90 0 0-243-242-243-242-14-14-29-22-45-24-17-1-30 3-41 14-10 9-15 21-14 38 1 17 9 33 24 47 0 0 170 171 170 171 8 9 17 9 26 0 9-9 9-17 0-25 0 0-170-170-170-170-15-15-19-27-11-36 5-3 9-4 13-3 8 1 16 6 23 13 0 0 243 243 243 243 17 17 23 35 17 55-5 21-18 34-39 39-18 5-36-1-55-18 0 0-253-253-253-253-22-26-33-51-33-74 1-22 10-42 27-59 17-17 37-25 60-26 23-1 47 10 72 32 0 0 254 253 254 253 8 8 17 8 26 0 9-8 9-16 0-25 0 0-254-254-254-254-28-28-60-42-95-42"/>
<glyph glyph-name="address" unicode="&#57407;" d="M218 486c7 0 10-3 10-10 0 0 0-440 0-440 0-7-3-10-10-10 0 0-23 0-23 0-7 0-11 3-11 10 0 0 0 225 0 225 0 0-90 0-90 0-5 0-10 1-14 3-4 1-9 3-13 6 0 0-62 42-62 42-3 2-5 5-5 9 0 3 2 6 5 8 0 0 62 42 62 42 4 3 9 5 13 6 3 1 7 2 14 2 0 0 90 0 90 0 0 0 0 97 0 97 0 7 4 10 11 10 0 0 23 0 23 0m289-106c3-2 5-5 5-8 0-4-2-6-5-8 0 0-61-42-61-42-7-5-11-7-13-7-5-2-9-3-14-3 0 0-155 0-155 0 0 0-20 118-20 118 0 0 175 0 175 0 6 0 11-1 14-2 4-1 8-3 13-6 0 0 61-42 61-42"/>
<glyph glyph-name="calendar" unicode="&#57408;" d="M435 435c15 0 27-5 37-15 9-10 14-22 14-36 0 0 0-307 0-307 0-14-5-26-14-36-10-10-22-15-37-15 0 0-358 0-358 0-14 0-26 5-36 15-10 10-15 22-15 36 0 0 0 307 0 307 0 14 5 26 15 36 10 10 22 15 36 15 0 0 23 0 23 0 0 0 0-51 0-51 0 0 82 0 82 0 0 0 0 51 0 51 0 0 149 0 149 0 0 0 0-51 0-51 0 0 82 0 82 0 0 0 0 51 0 51 0 0 22 0 22 0m0-358c0 0 0 205 0 205 0 0-358 0-358 0 0 0 0-205 0-205 0 0 358 0 358 0m-276 409c0 0 0-87 0-87 0 0-36 0-36 0 0 0 0 87 0 87 0 0 36 0 36 0m230 0c0 0 0-87 0-87 0 0-36 0-36 0 0 0 0 87 0 87 0 0 36 0 36 0"/>
<glyph glyph-name="globe-1" unicode="&#57409;" d="M256 502c68 0 126-24 174-72 48-49 72-106 72-174 0-68-24-126-72-174-48-48-106-72-174-72-68 0-125 24-174 72-48 48-72 106-72 174 0 68 24 125 72 174 49 48 106 72 174 72m210-246c0 45-13 86-40 122-27 37-61 62-103 77-7-9-9-14-9-17 2-13 5-21 10-26 4-4 9-5 15-3 0 0 16 6 16 6 0 0 4 0 11 1 7-8 7-16 0-24-8-8-16-18-23-29-8-11-8-24-1-39 12-22 28-33 49-33 10-1 17-7 22-19 5-11 8-22 9-33 3-28 1-52-7-72-8-15-5-28 7-39 29 38 44 81 44 128m-239 207c-38-5-72-19-102-43-29-24-51-54-65-89 2 0 6-1 12-1 5-1 10-1 14-2 4 0 9-1 13-2 5-1 9-2 13-4 3-2 5-4 6-7 1-4-1-11-7-23-7-11-10-21-10-31 0-10 7-20 20-29 13-8 19-16 19-23 0-10 2-21 4-35 3-14 4-21 4-22 0-5 7-14 19-28 12-14 21-22 27-22 3 0 5 4 5 12 1 7 0 16-1 27-1 11-1 18-1 21 0 11 2 23 7 38 4 14 14 26 30 36 16 9 25 17 28 23 6 12 7 22 5 31-3 10-6 17-9 22-3 6-9 11-17 15-9 4-16 7-21 8-6 2-12 4-19 5-7 1-11 2-12 2-5 2-12 3-21 4-9 0-15-1-18-2-4-1-9 1-14 6-6 5-9 10-9 15 0 3 3 8 8 13 5 6 11 12 18 19 6 7 11 12 14 16 3 4 6 8 9 10 3 3 6 6 11 9 4 3 9 6 14 10 1 2 5 5 13 9 7 5 11 8 13 12m-37-407c23-7 45-10 66-10 44 0 82 12 116 35-9 15-29 21-61 17-8 0-19-3-33-8-14-6-22-8-24-9-25-6-38-8-39-8-4-1-8-3-13-7-5-5-9-8-12-10"/>
<glyph glyph-name="heart-1" unicode="&#57410;" d="M440 407c24-22 36-49 36-80 0-32-12-59-36-81 0 0-184-169-184-169 0 0-184 169-184 169-24 22-36 49-36 81 0 31 12 58 36 80 21 19 47 29 77 29 30 0 56-10 78-29 0 0 29-27 29-27 0 0 30 27 30 27 21 19 46 29 76 29 31 0 56-10 78-29"/>
<glyph glyph-name="help-circled" unicode="&#57411;" d="M253 492c65 0 120-22 167-67 46-45 70-100 72-165 0-65-22-121-68-167-45-47-100-71-165-73-65 0-121 22-167 68-47 45-71 100-72 165-1 65 21 121 67 167 46 47 101 71 166 72m-1-379c10 0 19 3 25 9 6 7 10 15 10 24 0 11-2 19-9 26-6 6-15 9-25 9 0 0-1 0-1 0-10 0-18-3-24-9-7-6-10-14-11-24 0-10 3-18 10-25 6-6 14-10 24-10 0 0 1 0 1 0m85 168c9 11 13 24 13 40 0 26-9 46-27 59-18 13-41 19-69 19-22 0-40-4-53-13-24-14-36-39-37-75 0 0 0-2 0-2 0 0 56 0 56 0 0 0 0 2 0 2 0 9 3 18 8 28 6 8 15 12 28 12 14 0 23-3 27-10 5-7 8-14 8-23 0-6-3-13-8-20-3-4-7-8-11-10 0 0-3-2-3-2-2-2-4-4-8-6-3-2-7-5-10-8-4-2-7-5-11-8-4-3-7-6-9-9-4-7-7-20-9-40 0 0 0-4 0-4 0 0 56 0 56 0 0 0 0 2 0 2 0 4 0 9 2 14 2 7 6 13 14 19 0 0 14 9 14 9 16 12 25 20 29 26"/>
<glyph glyph-name="help" unicode="&#57412;" d="M360 456c30-21 44-53 44-95 0-21-7-43-21-63-4-7-19-20-45-41 0 0-24-15-24-15-13-12-21-22-24-31-2-6-4-13-4-23 0-4-3-7-8-7 0 0-66 0-66 0-5 0-8 2-8 6 1 34 6 55 14 64 6 7 14 16 25 24 11 9 20 16 28 22 0 0 13 7 13 7 7 6 13 11 17 18 10 15 14 26 14 35 0 14-4 27-13 40-9 13-25 19-47 19-23 0-39-8-48-23-10-14-14-30-14-47 0 0-85 0-85 0 2 55 21 95 58 119 24 14 52 21 85 21 44 0 81-10 109-30m-110-326c15 0 27-5 37-15 10-11 15-23 14-38-1-16-6-28-16-38-11-9-23-13-38-12-15 0-28 5-38 14-9 10-14 23-13 39 0 16 6 28 16 37 10 9 23 14 38 13"/>
<glyph glyph-name="info-circled" unicode="&#57413;" d="M253 492c65 0 120-22 167-67 46-45 70-100 72-165 0-65-22-121-68-167-45-47-100-71-165-73-65 0-121 22-167 68-47 45-71 100-72 165-1 65 21 121 67 167 46 47 101 71 166 72m27-78c-15 0-26-4-34-13-8-8-12-16-12-25 0-10 2-17 8-23 6-5 14-8 25-8 13 0 24 4 31 11 8 8 12 17 12 28 0 20-10 30-30 30m-62-304c10 0 25 4 43 13 19 9 37 22 54 40 0 0-9 12-9 12-16-12-28-18-37-18-4 0-5 6-2 19 0 0 22 82 22 82 9 33 5 49-11 49-11 0-26-5-46-15-20-10-40-22-59-38 0 0 8-13 8-13 18 11 31 17 38 17 4 0 4-6 0-17 0 0-18-78-18-78-9-36-3-53 17-53"/>
<glyph glyph-name="info" unicode="&#57414;" d="M318 512c17 0 29-5 38-14 9-9 14-21 14-35 0-17-7-32-20-45-14-13-30-20-49-20-16 0-29 5-38 14-9 9-13 21-12 37 0 15 6 30 18 43 12 13 28 20 49 20m-105-512c-34 0-43 30-28 91 0 0 31 130 31 130 5 19 5 29 0 29-4 0-13-3-28-9-14-7-26-13-36-20 0 0-14 23-14 23 31 26 63 48 97 64 34 17 60 25 77 25 27 0 33-28 19-83 0 0-36-136-36-136-6-22-5-33 3-33 15 0 35 10 60 31 0 0 16-21 16-21-29-29-59-52-90-67-31-16-55-24-71-24"/>
<glyph glyph-name="atom" unicode="&#57415;" d="M256 320c-35 0-64-29-64-64 0-35 29-64 64-64 35 0 64 29 64 64 0 35-29 64-64 64z m197-8c-7 2-13 6-19 11-8-16-19-32-30-49-18 23-38 46-61 69-23 22-46 43-69 61 55 39 108 62 145 62 16 0 27-4 35-12 9-8 12-22 12-38 1 0 2 0 3 0 6 0 12-1 18-3 1 24-5 43-18 56-12 12-28 18-50 18-43 0-102-26-163-70-61 44-120 70-163 70-5 0-9 0-13-1 6-5 10-12 13-20 37 0 90-23 145-62-23-18-46-39-69-61-22-23-43-46-61-69-18 26-33 51-44 76-7 16-12 32-15 45-2 0-4 0-6 0-6 0-11 1-16 2 3-17 9-35 18-56 12-27 29-56 50-85-21-29-38-58-50-85-26-58-27-104-2-128 12-12 28-18 50-18 64 0 162 56 250 144 22 23 43 46 61 69 59-83 76-154 50-180-8-8-19-12-35-12-20 0-44 7-71 19-3-7-7-13-12-18 31-14 59-22 83-22 22 0 38 6 50 18 37 37 14 122-52 213 14 19 26 38 36 56z m-360-266c-16 0-27 4-35 12-18 17-15 55 6 104 11 25 26 50 44 76 18-23 39-47 61-69 23-23 46-43 69-61-55-39-108-62-145-62z m235 138c-23-23-48-44-72-63-24 19-48 40-72 63-23 24-44 48-63 72 19 24 40 48 63 72 24 23 48 44 72 63 24-19 48-40 72-63 24-24 45-48 63-72-19-24-40-48-63-72z m141 200c-11 0-21-10-21-21 0-12 10-22 21-22 12 0 22 10 22 22 0 11-10 21-22 21z m-170-277c-12 0-22-10-22-22 0-11 10-21 22-21 11 0 21 10 21 21 0 12-10 22-21 22z m-256 320c11 0 21 9 21 21 0 12-10 21-21 21-12 0-22-9-22-21 0-12 10-21 22-21z"/>
<glyph glyph-name="lab" unicode="&#57416;" d="M448 155c0 0-149 149-149 165l0 21 42 0 0 128-192 0 0-128 43 0 0-21c0-16-149-165-149-165-28-32-22-57-17-69 5-12 24-43 37-43l364 0c14 0 33 31 38 43 5 12 11 37-17 69z m-22-52c-2-5-7-12-11-18l-340 0c-4 6-8 13-10 18-3 7 4 17 9 23 160 161 160 175 161 194l0 64-43 0 0 0 0 43 107 0 0-43-43 0 0-65c0-18 1-32 161-193 5-6 12-16 9-23z m-170 153l-21 0-128-128 0-21 277 0 0 21z m-43-64l22 43 21 0 21-43z"/>
<glyph glyph-name="bullseye" unicode="&#57417;" d="M329 256c0-20-7-37-21-52-15-14-32-21-52-21-20 0-37 7-52 21-14 15-21 32-21 52 0 20 7 37 21 52 15 14 32 21 52 21 20 0 37-7 52-21 14-15 21-32 21-52z m37 0c0 30-11 56-32 78-22 21-48 32-78 32-30 0-56-11-78-32-21-22-32-48-32-78 0-30 11-56 32-78 22-21 48-32 78-32 30 0 56 11 78 32 21 22 32 48 32 78z m36 0c0-40-14-75-43-103-28-29-63-43-103-43-40 0-75 14-103 43-29 28-43 63-43 103 0 40 14 75 43 103 28 29 63 43 103 43 40 0 75-14 103-43 29-28 43-63 43-103z m37 0c0 25-5 48-15 71-9 23-22 42-39 58-16 17-35 30-58 39-23 10-46 15-71 15-25 0-48-5-71-15-23-9-42-22-58-39-17-16-30-35-39-58-10-23-15-46-15-71 0-25 5-48 15-71 9-23 22-42 39-58 16-17 35-30 58-39 23-10 46-15 71-15 25 0 48 5 71 15 23 9 42 22 58 39 17 16 30 35 39 58 10 23 15 46 15 71z m36 0c0-40-9-77-29-110-20-34-46-60-80-80-33-20-70-29-110-29-40 0-77 9-110 29-34 20-60 46-80 80-20 33-29 70-29 110 0 40 9 77 29 110 20 34 46 60 80 80 33 20 70 29 110 29 40 0 77-9 110-29 34-20 60-46 80-80 20-33 29-70 29-110z"/>
<glyph glyph-name="briefcase-case" unicode="&#57418;" d="M183 402l146 0 0 37-146 0z m-101 0l0-365-18 0c-18 0-33 6-45 18-13 13-19 28-19 46l0 237c0 18 6 33 19 45 12 13 27 19 45 19z m320 0l0-365-292 0 0 365 36 0 0 46c0 8 3 14 8 19 6 6 12 8 20 8l164 0c8 0 14-2 20-8 5-5 8-11 8-19l0-46z m110-64l0-237c0-18-6-33-19-46-12-12-27-18-45-18l-18 0 0 365 18 0c18 0 33-6 45-19 13-12 19-27 19-45z"/>
<glyph glyph-name="money-banknote" unicode="&#57419;" d="M205 188l102 0 0 25-34 0 0 120-30 0-40-37 21-21c7 7 12 12 14 15l1 0 0-77-34 0z m136 68c0-12-2-25-5-38-4-13-9-25-16-36-7-11-16-20-27-27-11-6-24-10-37-10-13 0-26 4-37 10-11 7-20 16-27 27-7 11-12 23-16 36-3 13-5 26-5 38 0 12 2 25 5 38 4 13 9 25 16 36 7 11 16 20 27 27 11 6 24 10 37 10 13 0 26-4 37-10 11-7 20-16 27-27 7-11 12-23 16-36 3-13 5-26 5-38z m137-68l0 136c-19 0-35 7-48 20-14 14-20 30-20 49l-308 0c0-19-6-35-20-49-13-13-29-20-48-20l0-136c19 0 35-7 48-20 14-14 20-30 20-49l308 0c0 19 6 35 20 49 13 13 29 20 48 20z m34 222l0-308c0-4-2-8-5-12-3-3-7-5-12-5l-478 0c-5 0-9 2-12 5-3 4-5 8-5 12l0 308c0 4 2 8 5 12 3 3 7 5 12 5l478 0c5 0 9-2 12-5 3-4 5-8 5-12z"/>
<glyph glyph-name="spinner" unicode="&#57420;" d="M174 128c0-11-4-21-12-29-9-8-18-12-29-12-12 0-22 4-30 12-8 8-12 18-12 29 0 11 4 21 12 29 8 8 18 12 30 12 11 0 20-4 29-12 8-8 12-18 12-29z m123-55c0-10-3-19-11-26-7-7-15-10-25-10-11 0-19 3-26 10-7 7-11 16-11 26 0 10 4 19 11 26 7 7 15 11 26 11 10 0 18-4 25-11 8-7 11-16 11-26z m-174 183c0-13-4-23-13-32-9-9-20-14-32-14-13 0-24 5-33 14-9 9-13 19-13 32 0 13 4 23 13 32 9 9 20 14 33 14 12 0 23-5 32-14 9-9 13-19 13-32z m298-128c0-9-4-16-10-23-6-6-14-9-22-9-9 0-17 3-23 9-6 7-9 14-9 23 0 9 3 16 9 23 6 6 14 9 23 9 8 0 16-3 22-9 6-7 10-14 10-23z m-238 256c0-14-5-26-15-36-10-9-22-14-35-14-14 0-26 5-36 14-10 10-15 22-15 36 0 14 5 26 15 36 10 9 22 14 36 14 13 0 25-5 35-14 10-10 15-22 15-36z m132 55c0-15-5-28-16-39-10-11-23-16-38-16-16 0-29 5-39 16-11 11-16 24-16 39 0 15 5 28 16 39 10 10 23 16 39 16 15 0 28-6 38-16 11-11 16-24 16-39z m156-183c0-8-3-14-8-19-5-6-12-8-20-8-7 0-14 2-19 8-5 5-8 11-8 19 0 8 3 14 8 19 5 6 12 8 19 8 8 0 15-2 20-8 5-5 8-11 8-19z m-60 128c0-6-2-12-6-16-5-5-10-7-16-7-7 0-12 2-17 7-4 4-6 10-6 16 0 6 2 12 6 16 5 5 10 7 17 7 6 0 11-2 16-7 4-4 6-10 6-16z"/>
<glyph glyph-name="folder3" unicode="&#57421;" d="M494 338l0-201c0-17-7-32-19-45-13-13-28-19-45-19l-348 0c-17 0-32 6-45 19-12 13-19 28-19 45l0 274c0 18 7 33 19 46 13 12 28 18 45 18l92 0c17 0 32-6 45-18 12-13 19-28 19-46l0-9 192 0c17 0 32-6 45-19 12-12 19-27 19-45z"/>
<glyph glyph-name="folder-open" unicode="&#57422;" d="M501 241c0-5-3-11-8-18l-90-105c-7-9-18-17-32-23-14-7-26-10-38-10l-290 0c-6 0-12 1-16 4-5 2-8 6-8 11 0 6 3 12 9 18l89 105c8 10 19 17 32 24 14 6 27 9 39 9l290 0c6 0 11-1 16-3 5-3 7-7 7-12z m-91 92l0-43-222 0c-17 0-34-4-53-13-18-8-33-19-44-31l-89-106-2-2c0 1 0 2 0 4 0 1 0 2 0 3l0 256c0 16 6 30 18 42 11 12 25 18 42 18l85 0c16 0 30-6 42-18 12-12 18-26 18-42l0-8 145 0c16 0 30-6 42-18 12-12 18-26 18-42z"/>
<glyph glyph-name="calendar-1" unicode="&#57423;" d="M55 37l82 0 0 82-82 0z m100 0l92 0 0 82-92 0z m-100 100l82 0 0 92-82 0z m100 0l92 0 0 92-92 0z m-100 110l82 0 0 82-82 0z m210-210l92 0 0 82-92 0z m-110 210l92 0 0 82-92 0z m220-210l82 0 0 82-82 0z m-110 100l92 0 0 92-92 0z m-100 247l0 82c0 3-1 5-3 7-2 2-4 2-7 2l-18 0c-2 0-4 0-6-2-2-2-3-4-3-7l0-82c0-2 1-5 3-6 2-2 4-3 6-3l18 0c3 0 5 1 7 3 2 1 3 4 3 6z m210-247l82 0 0 92-82 0z m-110 110l92 0 0 82-92 0z m110 0l82 0 0 82-82 0z m9 137l0 82c0 3-1 5-3 7-2 2-4 2-6 2l-18 0c-3 0-5 0-7-2-2-2-3-4-3-7l0-82c0-2 1-5 3-6 2-2 4-3 7-3l18 0c2 0 4 1 6 3 2 1 3 4 3 6z m110 18l0-365c0-10-4-19-11-26-7-7-16-11-26-11l-402 0c-10 0-19 4-26 11-7 7-11 16-11 26l0 365c0 10 4 19 11 26 7 7 16 11 26 11l36 0 0 27c0 13 5 24 14 33 9 9 20 13 32 13l18 0c13 0 24-4 33-13 9-9 13-20 13-33l0-27 110 0 0 27c0 13 4 24 13 33 9 9 20 13 33 13l18 0c12 0 23-4 32-13 9-9 14-20 14-33l0-27 36 0c10 0 19-4 26-11 7-7 11-16 11-26z"/>
<glyph glyph-name="eye-1" unicode="&#57424;" d="M475 238c-29 45-65 78-108 101 11-20 17-42 17-65 0-35-13-65-38-90-25-25-55-38-90-38-35 0-65 13-90 38-25 25-38 55-38 90 0 23 6 45 17 65-43-23-79-56-108-101 25-39 57-70 95-94 38-23 79-34 124-34 45 0 86 11 124 34 38 24 70 55 95 94z m-205 109c0 4-2 7-4 10-3 3-6 4-10 4-24 0-44-8-61-25-17-17-26-38-26-62 0-4 1-7 4-9 3-3 6-4 10-4 4 0 7 1 10 4 2 2 4 5 4 9 0 17 5 31 17 42 12 12 26 18 42 18 4 0 7 1 10 4 2 2 4 6 4 9z m242-109c0-7-2-13-6-20-26-44-62-79-107-105-45-27-93-40-143-40-50 0-98 13-143 40-45 26-81 61-107 105-4 7-6 13-6 20 0 6 2 13 6 19 26 44 62 79 107 106 45 26 93 39 143 39 50 0 98-13 143-39 45-27 81-62 107-106 4-6 6-13 6-19z"/>
<glyph glyph-name="eye-slash-close" unicode="&#57425;" d="M159 131l22 40c-17 12-30 27-39 45-9 19-14 38-14 58 0 23 6 45 17 65-43-23-79-56-108-101 31-49 72-85 122-107z m111 216c0 4-2 7-4 10-3 3-6 4-10 4-24 0-44-8-61-25-17-17-26-38-26-62 0-4 1-7 4-9 3-3 6-4 10-4 4 0 7 1 10 4 2 2 4 5 4 9 0 17 5 31 17 42 12 12 26 18 42 18 4 0 7 1 10 4 2 2 4 6 4 9z m103 55c0-1 0-2 0-3-20-35-50-89-90-161-40-72-70-126-90-162l-14-26c-2-3-5-4-8-4-2 0-15 6-38 20-3 2-5 4-5 8 0 2 4 10 13 25-28 12-53 28-76 49-23 21-43 44-59 70-4 6-6 12-6 20 0 7 2 14 6 19 29 45 65 81 108 106 44 26 91 39 142 39 17 0 34-1 51-5l16 28c2 3 4 5 8 5 1 0 3-1 5-2 2-1 5-3 9-4 3-2 6-4 9-6 3-1 6-3 9-5 3-2 5-3 6-3 3-2 4-5 4-8z m11-128c0-26-8-50-23-72-15-22-35-38-59-47l80 143c1-8 2-16 2-24z m128-36c0-7-2-14-6-20-7-12-18-26-31-41-28-33-62-59-99-77-38-18-78-27-120-27l21 38c41 3 78 16 112 39 35 23 63 52 86 88-21 34-48 62-80 84l18 32c18-12 35-27 52-44 17-17 30-34 41-53 4-6 6-13 6-19z"/>
<glyph glyph-name="leaf-1" unicode="&#57426;" d="M366 311c0 5-2 9-6 13-3 3-8 5-13 5-32 0-63-5-90-14-28-9-53-22-75-38-21-16-44-37-67-63-3-4-5-8-5-13 0-5 2-9 5-13 4-3 8-5 13-5 5 0 9 2 13 5 5 5 12 12 21 21 9 9 15 15 19 18 26 24 52 41 77 51 25 10 55 15 89 15 5 0 10 1 13 5 4 4 6 8 6 13z m146 56c0-18-2-36-6-55-8-42-26-79-52-109-27-30-61-56-103-77-40-20-82-31-125-31-28 0-55 5-81 14-3 1-12 5-26 12-13 7-23 10-27 10-3 0-7-3-11-9-5-6-9-12-13-20-4-7-9-14-15-20-6-6-12-9-17-9-6 0-11 1-15 3-4 2-7 5-9 7-2 3-4 7-7 12-1 1-1 2-2 3-1 2-1 3-2 3 0 1 0 2-1 3 0 1 0 2 0 4 0 6 3 13 9 21 6 7 12 13 19 18 7 6 14 11 20 16 6 6 9 11 9 14 0 1-2 5-4 11-3 6-5 11-5 13-2 9-3 19-3 29 0 22 5 43 13 63 8 20 19 38 34 53 14 15 30 28 49 40 18 11 37 20 58 27 10 3 24 6 41 7 17 2 35 2 52 3 17 0 34 1 51 1 17 1 32 4 46 7 14 4 25 9 33 16l8 9c0 0 3 3 9 8 5 5 8 7 7 6 0-2 3 0 11 4 7 5 11 5 12 1 8 0 14-4 20-13 6-8 11-19 14-32 3-12 5-24 7-35 1-11 2-20 2-28z"/>
<glyph glyph-name="denied-block" unicode="&#57427;" d="M411 257c0 31-8 59-24 84l-216-215c26-17 55-25 85-25 21 0 41 4 60 12 20 8 36 19 50 33 14 14 25 31 33 50 8 19 12 40 12 61z m-285-86l216 216c-26 17-55 26-86 26-28 0-54-7-78-21-24-14-43-33-57-57-13-24-20-50-20-78 0-31 8-59 25-86z m349 86c0-30-5-59-17-86-12-27-27-51-47-70-19-20-43-35-70-47-27-12-55-17-85-17-30 0-58 5-85 17-27 12-51 27-70 47-20 19-35 43-47 70-12 27-17 56-17 86 0 30 5 58 17 85 12 28 27 51 47 71 19 19 43 35 70 46 27 12 55 18 85 18 30 0 58-6 85-18 27-11 51-27 70-46 20-20 35-43 47-71 12-27 17-55 17-85z"/>
<glyph glyph-name="letter-mail" unicode="&#57428;" d="M475 82l0 220c-6-7-12-13-19-19-51-39-92-72-122-97-10-8-18-14-24-19-6-4-14-9-24-14-11-4-21-7-30-7l0 0c-9 0-19 3-30 7-10 5-18 10-24 14-6 5-14 11-24 19-30 25-71 58-122 97-7 6-13 12-19 19l0-220c0-2 0-4 2-6 2-2 4-3 7-3l420 0c3 0 5 1 7 3 2 2 2 4 2 6z m0 301l0 7c0 0 0 1 0 3 0 3 0 4-1 4 0 0-1 1-1 2-1 2-2 3-3 3-1-1-2-1-4 0l-420 0c-3 0-5-1-7-2-2-2-2-4-2-7 0-32 14-59 42-81 36-29 75-59 114-91 1-1 5-3 10-8 6-5 10-8 13-11 4-2 8-5 13-9 5-3 10-6 14-8 5-1 9-2 13-2l0 0c4 0 8 1 13 2 4 2 9 5 14 8 5 4 9 7 13 9 3 3 7 6 13 11 5 5 9 7 10 8 39 32 78 62 114 91 11 8 20 19 29 33 9 14 13 26 13 38z m37 10l0-311c0-12-4-23-13-32-9-9-20-13-33-13l-420 0c-13 0-24 4-33 13-9 9-13 20-13 32l0 311c0 13 4 23 13 32 9 9 20 14 33 14l420 0c13 0 24-5 33-14 9-9 13-19 13-32z"/>
<glyph glyph-name="briefcase-case-two" unicode="&#57429;" d="M183 439l146 0 0 36-146 0z m329-183l0-137c0-13-4-23-13-32-9-9-20-14-33-14l-420 0c-13 0-24 5-33 14-9 9-13 19-13 32l0 137 192 0 0-46c0-5 2-9 5-13 4-3 8-5 13-5l92 0c5 0 9 2 13 5 3 4 5 8 5 13l0 46z m-219 0l0-37-74 0 0 37z m219 137l0-110-512 0 0 110c0 13 4 23 13 32 9 9 20 14 33 14l100 0 0 46c0 7 3 14 8 19 6 5 12 8 20 8l164 0c8 0 14-3 20-8 5-5 8-12 8-19l0-46 100 0c13 0 24-5 33-14 9-9 13-19 13-32z"/>
<glyph glyph-name="filter-1" unicode="&#57430;" d="M456 428c3-8 2-15-4-20l-141-141 0-212c0-8-4-14-11-17-3-1-5-1-7-1-6 0-10 1-13 5l-73 73c-4 4-6 8-6 13l0 139-141 141c-6 5-7 12-4 20 4 7 9 11 17 11l366 0c8 0 13-4 17-11z"/>
<glyph glyph-name="ellipsis" unicode="&#57431;" d="M311 155l0-54c0-8-3-15-8-20-5-5-12-8-20-8l-54 0c-8 0-15 3-20 8-5 5-8 12-8 20l0 54c0 8 3 15 8 20 5 5 12 8 20 8l54 0c8 0 15-3 20-8 5-5 8-12 8-20z m0 147l0-55c0-8-3-14-8-20-5-5-12-8-20-8l-54 0c-8 0-15 3-20 8-5 6-8 12-8 20l0 55c0 7 3 14 8 19 5 5 12 8 20 8l54 0c8 0 15-3 20-8 5-5 8-12 8-19z m0 146l0-55c0-7-3-14-8-19-5-6-12-8-20-8l-54 0c-8 0-15 2-20 8-5 5-8 12-8 19l0 55c0 8 3 14 8 19 5 6 12 8 20 8l54 0c8 0 15-2 20-8 5-5 8-11 8-19z"/>
<glyph glyph-name="list-2" unicode="&#57432;" d="M146 155l0-54c0-8-2-15-8-20-5-5-12-8-19-8l-92 0c-7 0-14 3-19 8-5 5-8 12-8 20l0 54c0 8 3 15 8 20 5 5 12 8 19 8l92 0c7 0 14-3 19-8 6-5 8-12 8-20z m0 147l0-55c0-8-2-14-8-20-5-5-12-8-19-8l-92 0c-7 0-14 3-19 8-5 6-8 12-8 20l0 55c0 7 3 14 8 19 5 5 12 8 19 8l92 0c7 0 14-3 19-8 6-5 8-12 8-19z m366-147l0-54c0-8-3-15-8-20-5-5-12-8-19-8l-275 0c-7 0-14 3-19 8-5 5-8 12-8 20l0 54c0 8 3 15 8 20 5 5 12 8 19 8l275 0c7 0 14-3 19-8 5-5 8-12 8-20z m-366 293l0-55c0-7-2-14-8-19-5-6-12-8-19-8l-92 0c-7 0-14 2-19 8-5 5-8 12-8 19l0 55c0 8 3 14 8 19 5 6 12 8 19 8l92 0c7 0 14-2 19-8 6-5 8-11 8-19z m366-146l0-55c0-8-3-14-8-20-5-5-12-8-19-8l-275 0c-7 0-14 3-19 8-5 6-8 12-8 20l0 55c0 7 3 14 8 19 5 5 12 8 19 8l275 0c7 0 14-3 19-8 5-5 8-12 8-19z m0 146l0-55c0-7-3-14-8-19-5-6-12-8-19-8l-275 0c-7 0-14 2-19 8-5 5-8 12-8 19l0 55c0 8 3 14 8 19 5 6 12 8 19 8l275 0c7 0 14-2 19-8 5-5 8-11 8-19z"/>
<glyph glyph-name="align-justify" unicode="&#57433;" d="M475 128l0-37c0-5-1-9-5-12-4-4-8-6-13-6l-402 0c-5 0-9 2-13 6-4 3-5 7-5 12l0 37c0 5 1 9 5 13 4 3 8 5 13 5l402 0c5 0 9-2 13-5 4-4 5-8 5-13z m0 146l0-36c0-5-1-10-5-13-4-4-8-6-13-6l-402 0c-5 0-9 2-13 6-4 3-5 8-5 13l0 36c0 5 1 10 5 13 4 4 8 6 13 6l402 0c5 0 9-2 13-6 4-3 5-8 5-13z m0 147l0-37c0-5-1-9-5-13-4-3-8-5-13-5l-402 0c-5 0-9 2-13 5-4 4-5 8-5 13l0 37c0 5 1 9 5 12 4 4 8 6 13 6l402 0c5 0 9-2 13-6 4-3 5-7 5-12z"/>
<glyph glyph-name="credit-card" unicode="&#57434;" d="M469 461c12 0 22-4 30-13 9-8 13-18 13-30l0-324c0-12-4-22-13-30-8-9-18-13-30-13l-426 0c-12 0-22 4-30 13-9 8-13 18-13 30l0 324c0 12 4 22 13 30 8 9 18 13 30 13z m-426-34c-3 0-5-1-6-3-2-2-3-4-3-6l0-60 444 0 0 60c0 2-1 4-3 6-1 2-3 3-6 3z m426-342c3 0 5 1 6 3 2 2 3 4 3 6l0 162-444 0 0-162c0-2 1-4 3-6 1-2 3-3 6-3z m-401 34l0 35 69 0 0-35z m103 0l0 35 102 0 0-35z"/>
<glyph glyph-name="social-usd" unicode="&#57435;" d="M411 209c-3 9-8 18-14 27-6 8-14 16-24 22-9 7-21 12-33 15-6 2-15 4-26 7-9 2-17 4-26 6l0 106c9-2 15-6 22-10 14-10 23-25 26-46l69 0c-1 18-5 33-12 46-8 15-19 27-33 37-14 10-30 17-48 22-8 3-15 4-24 6l0 33-64 0 0-33c-7-1-15-3-22-4-18-5-33-11-46-20-14-9-25-20-33-34-8-13-12-29-12-48 0-9 1-19 4-28 3-9 7-18 14-26 7-8 15-16 27-23 11-6 24-12 41-16 9-2 19-4 27-6l0-120c-11 3-22 8-31 14-9 6-16 14-21 23-5 10-7 21-7 33l-69 0c1-21 5-39 14-55 8-17 20-30 35-41 15-11 31-18 51-23 9-3 19-4 28-6l0-35 64 0 0 35c10 1 19 2 29 4 18 5 35 11 50 21 15 9 26 21 35 35 9 15 14 32 14 53 0 10-2 19-5 29z m-187 93c-12 4-24 9-32 16-9 8-13 18-13 31 0 9 3 17 7 23 5 6 10 11 17 15 6 3 14 5 21 7z m119-149c-3-7-8-13-14-18-7-5-16-10-27-13-4-1-8-2-14-3l0 107c10-3 18-5 26-8 8-3 16-7 23-14 7-7 10-17 10-31 0-7-1-14-4-20z"/>
<glyph glyph-name="pie-graph" unicode="&#57436;" d="M33 256l223 0 0 223c-5 1-11 1-16 1-115 0-208-93-208-208 0-5 0-11 1-16z m77-146c38-48 96-78 162-78 115 0 208 93 208 208 0 66-30 124-78 162-31 26-71 42-114 45l0-223-223 0c3-43 19-83 45-114z"/>
<glyph glyph-name="ios-keypad" unicode="&#57437;" d="M395 171c-30 0-54-24-54-54 0-29 24-53 54-53 29 0 53 24 53 53 0 30-24 54-53 54z m-139 0c-29 0-53-24-53-54 0-29 24-53 53-53 30 0 53 24 53 53 0 30-23 54-53 54z m-139 0c-29 0-53-24-53-54 0-29 24-53 53-53 30 0 54 24 54 53 0 30-24 54-54 54z m278 138c-30 0-54-24-54-53 0-30 24-53 54-53 29 0 53 23 53 53 0 29-24 53-53 53z m-139 0c-29 0-53-24-53-53 0-30 24-53 53-53 30 0 53 23 53 53 0 29-23 53-53 53z m-139 0c-29 0-53-24-53-53 0-30 24-53 53-53 30 0 54 23 54 53 0 29-24 53-54 53z m278 32c29 0 53 24 53 54 0 29-24 53-53 53-30 0-54-24-54-53 0-30 24-54 54-54z m-139 107c-29 0-53-24-53-53 0-30 24-54 53-54 30 0 53 24 53 54 0 29-23 53-53 53z m-139 0c-29 0-53-24-53-53 0-30 24-54 53-54 30 0 54 24 54 54 0 29-24 53-54 53z"/>
<glyph glyph-name="podium" unicode="&#57438;" d="M32 256l128 0 0-192-128 0z m160 96l128 0 0-288-128 0z m160-160l128 0 0-128-128 0z"/>
<glyph glyph-name="edit" unicode="&#57439;" d="M163 72l-91 91 251 250 90-90z m309 352l-48 48c-12 11-32 11-45-2l-45-45 91-91 45 45c13 13 13 33 2 45z m-408-275l-32-117 117 32z"/>
<glyph glyph-name="ios-unlocked" unicode="&#57440;" d="M256 208c-9 0-16-7-16-16 0-9 7-16 16-16 9 0 16 7 16 16 0 9-7 16-16 16z m-88 80l0 72c0 49 39 88 88 88 49 0 88-39 88-88l0-8 16 0 0 8c0 57-47 104-104 104-57 0-104-47-104-104l0-72-56 0 0-240 320 0 0 240z m96-127l0-33-16 0 0 33c-14 4-24 16-24 31 0 18 14 32 32 32 18 0 32-14 32-32 0-15-10-27-24-31z"/>
<glyph glyph-name="power" unicode="&#57441;" d="M256 256c-18 0-32 14-32 32l0 160c0 18 14 32 32 32 18 0 32-14 32-32l0-160c0-18-14-32-32-32z m123 187c-5 3-11 5-17 5-18 0-32-14-32-32 0-6 2-12 5-17 2-3 4-6 7-8 2-1 3-2 4-3 8-5 16-12 23-19 30-30 47-70 47-113 0-43-17-83-47-113-30-30-70-47-113-47-43 0-83 17-113 47-30 30-47 70-47 113 0 43 17 83 47 113 7 7 15 14 23 19 1 1 2 2 4 3 3 2 5 5 7 8 3 5 5 11 5 17 0 18-14 32-32 32-6 0-12-2-17-5l0 0c-61-40-101-109-101-187 0-124 100-224 224-224 124 0 224 100 224 224 0 78-40 147-101 187z"/>
<glyph glyph-name="android-menu" unicode="&#57442;" d="M64 128l384 0 0 43-384 0z m0 107l384 0 0 42-384 0z m0 149l0-43 384 0 0 43z"/>
<glyph glyph-name="ios-albums" unicode="&#57443;" d="M480 384l-448 0 0-320 448 0z m-408 32l368 0 0-16-368 0z m32 32l304 0 0-16-304 0z"/>
<glyph glyph-name="briefcase-2" unicode="&#57444;" d="M272 240l-32 0 0 8-208 0 0-176c0-4 3-8 8-8l432 0c5 0 8 4 8 8l0 176-208 0z m200 128l-120 0 0 31c-1 28-22 49-51 49l-90 0c-29 0-50-21-51-49l0-31-120 0c-5 0-8-4-8-8l0-96 208 0 0 8 32 0 0-8 208 0 0 96c0 4-3 8-8 8z m-152 28c0-1 0-1 0-1l0-27-128 0 0 27c0 0 0 0 0 1 0 0 0 0 0 1 0 9 9 19 19 19l90 0c10 0 19-9 19-19 0-1 0-1 0-1z"/>
<glyph glyph-name="document" unicode="&#57445;" d="M399 343c0 3-2 5-3 7l-84 92c-2 2-4 3-6 4-3 1-7 2-10 2l-160 0c-12 0-23-10-23-23l0-336c0-13 11-25 23-25l243 0c13 0 22 12 22 25l0 245c0 3-1 6-2 9z m-93 58l58-64-58 0z m-161-306l0 320 129 0 0-81c0-15 13-29 28-29l67 0 0-210z"/>
<glyph glyph-name="leaf-2" unicode="&#57446;" d="M457 133c-53 8-57 16-57 16 11 65-22 147-77 192-73 59-184 16-270 106-20 21-8-236 100-333 79-71 171-49 197-38 23 11 39 30 39 30 42-13 63-12 63-12 15-2 22 37 5 39z m-96-4c-139 41-242 184-242 184 0 0 91-107 252-160 0-8-5-20-10-24z"/>
<glyph glyph-name="bug" unicode="&#57447;" d="M375 385c-30 38-72 63-119 63-47 0-89-25-119-63 7-16 16-30 28-43 25-24 57-37 91-37 34 0 66 13 91 37 12 13 21 27 28 43z m-248-16c-2-3-4-6-5-8-3 1-5 3-8 5-1 1-3 4-4 8 5 11 1 25-10 31-12 6-27 2-33-9-7-12-2-26 9-33 1-1 3-1 4-2 3-6 7-14 14-19 4-4 8-7 15-11-7-20-12-42-13-65-11-1-18-2-25-4-4-2-8-4-12-6-1 0-2 0-3 0-13 0-24-11-24-24 0-13 11-24 24-24 13 0 23 10 24 23 5 1 10 3 17 3 3-33 13-64 29-90-14-11-23-23-27-36 0 0-1 0-2-1-1-1-2-2-3-3-8-10-8-25 2-34 10-9 25-8 34 2 8 9 8 22 1 31 3 6 6 9 13 15 27-31 64-52 104-54l0 225c-53 3-99 35-121 80z m329-113c-1 0-2 0-3 0-4 2-8 4-12 6-7 2-14 3-25 4-1 23-6 45-13 65 7 4 11 7 15 11 7 5 11 13 14 19 1 1 3 1 4 2 11 7 16 21 9 33-6 11-21 15-33 9-11-6-15-20-10-31-1-4-3-7-4-8-3-2-5-4-8-5-1 2-3 5-5 8-22-45-68-77-121-80l0-225c40 2 77 23 104 54 7-6 10-9 13-15-7-9-7-22 1-31 9-10 24-11 34-2 10 9 10 24 2 34-1 1-2 2-3 3-1 1-2 1-2 1-4 13-13 25-27 36 16 26 26 57 29 90 7 0 12-2 17-3 1-13 11-23 24-23 13 0 24 11 24 24 0 13-11 24-24 24z"/>
<glyph glyph-name="ios-rose" unicode="&#57448;" d="M416 384c-19-4-37-9-54-14-40-12-75-25-105-40-19-9-26-13-52-28-58-33-93-69-93-142 0-73 56-128 144-128 88 0 144 55 144 128 0 73-61 128 16 224z m-320 32c41-47 45-104 39-145 13 12 32 26 57 42 6 4 13 8 20 12 12 7 24 13 36 19-9 11-22 20-37 29-48 28-115 43-115 43z m256 32c0 0-79-2-131-62 17-10 30-21 39-32l3-3c37 17 88 34 121 42-6 23-32 55-32 55z m-176 32c-15-22-26-45-30-60 21-6 35-13 61-27 10 12 20 22 33 31-30 40-64 56-64 56z"/>
<glyph glyph-name="ios-flask" unicode="&#57449;" d="M391 129l0 0-67 111-135 0-67-111 0 0 0 0c-6-9-9-19-9-25 0-13 5-17 6-18 5-4 13-6 24-6l226 0c10 0 18 3 23 7 4 4 6 10 7 18 0 6-2 16-8 24z m46 13l-117 195 0 127 16 0 0 16-160 0 0-16 16 0 0-127-116-195c-8-16-12-32-12-46 1-37 29-64 65-64l256 0c36 0 62 28 63 64 0 14-3 30-11 46z m-229 306l48 0 0-16-48 0z m0-48l32 0 0-16-32 0z m0-48l48 0 0-16-48 0z m-17-48l49 0 0-16-58 0z m224-200c-1-24-16-40-46-40l-226 0c-30 0-46 12-46 40 0 9 4 23 11 33l71 119 154 0 72-119c6-10 10-24 10-33z"/>
<glyph glyph-name="ios-printer-outline" unicode="&#57450;" d="M433 400l-33 0 0 48-288 0 0-48-31 0c-18 0-33-14-33-31l0-159c0-17 15-32 33-32l47 0 0-114 256 0 0 114 49 0c17 0 31 15 31 32l0 159c0 17-14 31-31 31z m-305 32l256 0 0-32-256 0z m240-352l-224 0 0 192 224 0z m80 130c0-8-7-16-15-16l-49 0 0 94-256 0 0-94-47 0c-9 0-17 8-17 16l0 159c0 8 8 15 17 15l352 0c8 0 15-7 15-15z"/>
<glyph glyph-name="ios-unlocked-outline" unicode="&#57451;" d="M256 224c-18 0-32-14-32-32 0-15 10-27 24-31l0-33 16 0 0 33c14 4 24 16 24 31 0 18-14 32-32 32z m0-48c-9 0-16 7-16 16 0 9 7 16 16 16 9 0 16-7 16-16 0-9-7-16-16-16z m-88 112l0 72c0 49 39 88 88 88 49 0 88-39 88-88l0-8 16 0 0 8c0 57-47 104-104 104-57 0-104-47-104-104l0-72-56 0 0-240 320 0 0 240z m232-224l-288 0 0 208 288 0z"/>
<glyph glyph-name="android-clipboard" unicode="&#57452;" d="M405 432l-87 0c-7 28-32 48-62 48-30 0-55-20-62-48l-87 0c-24 0-43-19-43-43l0-314c0-24 19-43 43-43l298 0c24 0 43 19 43 43l0 314c0 24-19 43-43 43z m-149 0c12 0 21-10 21-21 0-12-9-22-21-22-12 0-21 10-21 22 0 11 9 21 21 21z m152-360l-304 0 0 320 40 0 0-72 224 0 0 72 40 0z"/>
<glyph glyph-name="android-cancel" unicode="&#57453;" d="M256 464c-115 0-208-93-208-208 0-115 93-208 208-208 115 0 208 93 208 208 0 115-93 208-208 208z m104-283l-29-29-75 75-75-75-29 29 75 75-75 75 29 29 75-75 75 75 29-29-75-75z"/>
<glyph glyph-name="ios-clock-outline" unicode="&#57454;" d="M256 464c-115 0-208-93-208-208 0-115 93-208 208-208 115 0 208 93 208 208 0 115-93 208-208 208z m0-399c-105 0-191 86-191 191 0 105 86 191 191 191 105 0 191-86 191-191 0-105-86-191-191-191z m0 191l-96 0 0-17 113 0 0 145-17 0z"/>
<glyph glyph-name="ios-pricetag" unicode="&#57455;" d="M384 384c0-9-7-16-16-16-9 0-16 7-16 16 0 9 7 16 16 16 9 0 16-7 16-16z m-80 96l-256-288 160-160 256 288 0 160z m64-128c-18 0-32 14-32 32 0 18 14 32 32 32 18 0 32-14 32-32 0-18-14-32-32-32z"/>
<glyph glyph-name="card" unicode="&#57456;" d="M452 416l-392 0c-15 0-28-13-28-28l0-264c0-16 13-28 28-28l392 0c16 0 28 13 28 28l0 264c0 15-12 28-28 28z m-375-32l358 0c7 0 12-5 13-12l0-20-384 0 0 20c1 7 6 12 13 12z m358-256l-358 0c-7 0-12 5-13 12l0 116 384 0 0-116c-1-7-6-12-13-12z m-339 80l192 0 0-16-192 0z m0-32l96 0 0-16-96 0z m256 32l64 0 0-48-64 0z"/>
<glyph glyph-name="erlenmeyer-flask" unicode="&#57457;" d="M439 116l-100 150c-13 20-19 44-19 70 0 0 0 73 0 93 0 19 12 33 15 42 2 8 0 8-16 8l-126 0c-16 0-19 0-17-8 3-9 16-23 16-43 0-19 0-92 0-92 0-26-8-50-21-70l-49-77-49-73c-6-9-9-20-9-32 0-28 16-53 63-53l258 0c47 0 63 25 63 53 0 12-3 23-9 32z m-30-45c-4-4-11-8-24-8l-258 0c-13 0-21 4-25 8-3 3-6 7-6 14 0 5 1 10 4 14l99 150c16 25 25 55 25 87l0 111 64 0 0-111c0-31 7-61 23-87l101-150c2-4 4-9 4-14 0-7-4-11-7-14z m-20 30c0 0 0-1 0-1l-82 123-103 0-81-123c-2-2-3-5-3-8 0-7 7-14 14-14l244 0c8 0 14 7 14 15 0 2-1 6-3 8z m-87 69c-1 2-2 4-2 6 0 2 1 4 2 6 2 1 4 2 6 2 2 0 4-1 5-2 2-2 3-4 3-6 0-2-1-4-3-6-1-1-3-2-5-2-2 0-4 1-6 2z m47-59c-1-1-3-1-4-1-3 0-5 1-7 4l-23 35c-3 4-2 9 2 12 1 0 3 1 4 1 3 0 5-1 7-4l23-36c3-3 2-8-2-11z"/>
<glyph glyph-name="cash" unicode="&#57458;" d="M0 416l0-256 512 0 0 256z m193-224l-113 0c0 27-21 48-48 48l0 80c35 0 64 29 64 64l97 0c-20-23-33-58-33-96 0-38 13-73 33-96z m105 59c-2-4-6-8-10-11-4-2-9-4-14-5-3-1-6-1-9-2l0-9-18 0 0 9c-3 1-5 1-8 2-6 1-11 4-15 7-4 3-8 6-10 11-2 5-4 11-4 16l20 0c0-3 1-7 2-9 1-3 4-5 6-7 3-2 6-3 9-4l0 35c-2 0-5 1-8 1-5 2-9 3-12 5-3 2-6 4-8 7-1 2-3 4-4 7 0 3-1 5-1 8 0 5 1 10 4 14 2 4 5 7 9 10 4 2 9 4 14 5 2 1 4 1 6 2l0 9 18 0 0-10c2 0 5 0 7-1 5-1 10-4 14-6 4-3 7-7 9-11 2-4 4-8 4-13l-20 0c-1 6-3 10-7 13-2 1-5 2-7 3l0-31c3 0 5-1 8-1 3-1 6-2 7-2 4-1 7-3 10-5 2-2 5-4 7-6 1-3 3-5 4-8 1-3 1-5 1-8 0-6-1-11-4-15z m182-11c-26 0-48-21-48-48l-113 0c20 23 33 58 33 96 0 38-13 73-33 96l97 0c0-35 29-64 64-64z m-352 48c0-18-14-32-32-32-18 0-32 14-32 32 0 18 14 32 32 32 18 0 32-14 32-32z m320 0c0-18-14-32-32-32-18 0-32 14-32 32 0 18 14 32 32 32 18 0 32-14 32-32z m-175-11c-3 1-5 1-8 2l0-31c2 1 3 1 4 1 3 1 6 2 8 4 2 1 3 3 4 5 1 2 1 4 1 6 0 4-1 7-3 9-2 2-4 3-6 4z m-37 44c-1-2-2-4-2-7 0-3 1-6 4-8 2-2 5-4 9-5l0 26c-2 0-4-1-6-2-2-1-4-2-5-4z m-236-193l512 0 0-32-512 0z"/>
</font></defs></svg>
